<?xml version="1.0" standalone="yes"?>

<svg version="1.1" viewBox="0.0 0.0 960.0 720.0" fill="none" stroke="none" stroke-linecap="square" stroke-miterlimit="10" xmlns="http://www.w3.org/2000/svg" xmlns:xlink="http://www.w3.org/1999/xlink"><clipPath id="p.0"><path d="m0 0l960.0 0l0 720.0l-960.0 0l0 -720.0z" clip-rule="nonzero"></path></clipPath><g clip-path="url(#p.0)"><path fill="#000000" fill-opacity="0.0" d="m0 0l960.0 0l0 720.0l-960.0 0z" fill-rule="evenodd"></path><path fill="#d9d9d9" d="m566.5875 102.92388l291.9212 0l0 515.22833l-291.9212 0z" fill-rule="evenodd"></path><path fill="#adadad" d="m858.5087 102.92388l97.30713 -97.30708l0 515.22833l-97.30713 97.30707z" fill-rule="evenodd"></path><path fill="#e0e0e0" d="m566.5875 102.92388l97.30707 -97.30708l291.92126 0l-97.30713 97.30708z" fill-rule="evenodd"></path><path fill="#000000" fill-opacity="0.0" d="m566.5875 102.92388l97.30707 -97.30708l291.92126 0l0 515.22833l-97.30713 97.30707l-291.9212 0zm0 0l291.9212 0l97.30713 -97.30708m-97.30713 97.30708l0 515.22833" fill-rule="evenodd"></path><path stroke="#000000" stroke-width="4.0" stroke-linejoin="round" stroke-linecap="butt" d="m566.5875 102.92388l97.30707 -97.30708l291.92126 0l0 515.22833l-97.30713 97.30707l-291.9212 0zm0 0l291.9212 0l97.30713 -97.30708m-97.30713 97.30708l0 515.22833" fill-rule="evenodd"></path><path fill="#000000" fill-opacity="0.0" d="m565.53235 361.76642l292.97638 -1.228363" fill-rule="evenodd"></path><path stroke="#000000" stroke-width="4.0" stroke-linejoin="round" stroke-linecap="butt" d="m565.53235 361.76642l292.97638 -1.228363" fill-rule="evenodd"></path><path fill="#000000" fill-opacity="0.0" d="m858.5087 360.53806l97.322876 -97.29135" fill-rule="evenodd"></path><path stroke="#000000" stroke-width="4.0" stroke-linejoin="round" stroke-linecap="butt" d="m858.5087 360.53806l97.322876 -97.29135" fill-rule="evenodd"></path><path fill="#cccccc" d="m7.6733007 375.70505l145.70866 0l0 67.346436l-145.70866 0z" fill-rule="evenodd"></path><path fill="#a3a3a3" d="m153.38196 375.70505l22.448822 -22.448822l0 67.346466l-22.448822 22.448792z" fill-rule="evenodd"></path><path fill="#d6d6d6" d="m7.6733007 375.70505l22.448818 -22.448822l145.70866 0l-22.448822 22.448822z" fill-rule="evenodd"></path><path fill="#000000" fill-opacity="0.0" d="m7.6733007 375.70505l22.448818 -22.448822l145.70866 0l0 67.346466l-22.448822 22.448792l-145.70866 0zm0 0l145.70866 0l22.448822 -22.448822m-22.448822 22.448822l0 67.346436" fill-rule="evenodd"></path><path stroke="#000000" stroke-width="4.0" stroke-linejoin="round" stroke-linecap="butt" d="m7.6733007 375.70505l22.448818 -22.448822l145.70866 0l0 67.346466l-22.448822 22.448792l-145.70866 0zm0 0l145.70866 0l22.448822 -22.448822m-22.448822 22.448822l0 67.346436" fill-rule="evenodd"></path><path fill="#d9d9d9" d="m33.489643 301.945l13.889767 0l0 60.944885l-13.889767 0z" fill-rule="evenodd"></path><path fill="#adadad" d="m47.37941 301.945l4.629921 -4.6299133l0 60.944885l-4.629921 4.6299133z" fill-rule="evenodd"></path><path fill="#e0e0e0" d="m33.489643 301.945l4.629921 -4.6299133l13.889767 0l-4.629921 4.6299133z" fill-rule="evenodd"></path><path fill="#000000" fill-opacity="0.0" d="m33.489643 301.945l4.629921 -4.6299133l13.889767 0l0 60.944885l-4.629921 4.6299133l-13.889767 0zm0 0l13.889767 0l4.629921 -4.6299133m-4.629921 4.6299133l0 60.944885" fill-rule="evenodd"></path><path stroke="#000000" stroke-width="3.0" stroke-linejoin="round" stroke-linecap="butt" d="m33.489643 301.945l4.629921 -4.6299133l13.889767 0l0 60.944885l-4.629921 4.6299133l-13.889767 0zm0 0l13.889767 0l4.629921 -4.6299133m-4.629921 4.6299133l0 60.944885" fill-rule="evenodd"></path><path fill="#000000" fill-opacity="0.0" d="m41.17232 233.83449l0 0c33.185024 0 60.086796 13.025238 60.086796 29.092697l-60.086796 0z" fill-rule="evenodd"></path><path fill="#000000" fill-opacity="0.0" d="m41.17232 233.83449l0 0c33.185024 0 60.086796 13.025238 60.086796 29.092697" fill-rule="evenodd"></path><path stroke="#000000" stroke-width="4.0" stroke-linejoin="round" stroke-linecap="butt" d="m41.17232 233.83449l0 0c33.185024 0 60.086796 13.025238 60.086796 29.092697" fill-rule="evenodd"></path><path fill="#000000" fill-opacity="0.0" d="m41.17232 216.539l0 0c44.574688 0 80.709625 16.896973 80.709625 37.740448l-80.709625 0z" fill-rule="evenodd"></path><path fill="#000000" fill-opacity="0.0" d="m41.17232 216.539l0 0c44.574688 0 80.709625 16.896973 80.709625 37.740448" fill-rule="evenodd"></path><path stroke="#000000" stroke-width="4.0" stroke-linejoin="round" stroke-linecap="butt" d="m41.17232 216.539l0 0c44.574688 0 80.709625 16.896973 80.709625 37.740448" fill-rule="evenodd"></path><path fill="#000000" fill-opacity="0.0" d="m42.75355 202.23286l0 0c51.499516 0 93.24811 20.099518 93.24811 44.89351l-93.24811 0z" fill-rule="evenodd"></path><path fill="#000000" fill-opacity="0.0" d="m42.75355 202.23286l0 0c51.499516 0 93.24811 20.099518 93.24811 44.89351" fill-rule="evenodd"></path><path stroke="#000000" stroke-width="4.0" stroke-linejoin="round" stroke-linecap="butt" d="m42.75355 202.23286l0 0c51.499516 0 93.24811 20.099518 93.24811 44.89351" fill-rule="evenodd"></path><path fill="#000000" fill-opacity="0.0" d="m42.753567 249.57301l0 0c23.406635 0 42.38146 7.9983673 42.38146 17.864883l-42.38146 0z" fill-rule="evenodd"></path><path fill="#000000" fill-opacity="0.0" d="m42.753567 249.57301l0 0c23.406635 0 42.38146 7.9983673 42.38146 17.864883" fill-rule="evenodd"></path><path stroke="#000000" stroke-width="4.0" stroke-linejoin="round" stroke-linecap="butt" d="m42.753567 249.57301l0 0c23.406635 0 42.38146 7.9983673 42.38146 17.864883" fill-rule="evenodd"></path><path fill="#000000" fill-opacity="0.0" d="m4.9805484 451.90524l251.59056 0l0 38.078766l-251.59056 0z" fill-rule="evenodd"></path><path fill="#000000" d="m42.1993 494.9384l4.546875 1.140625q-1.421875 5.609375 -5.140625 8.5625q-3.71875 2.9375 -9.078125 2.9375q-5.5625 0 -9.046875 -2.265625q-3.46875 -2.265625 -5.296875 -6.546875q-1.8125 -4.296875 -1.8125 -9.21875q0 -5.375 2.046875 -9.359375q2.0625 -4.0 5.84375 -6.078125q3.78125 -2.078125 8.328125 -2.078125q5.15625 0 8.671875 2.625q3.515625 2.625 4.90625 7.390625l-4.484375 1.046875q-1.1875 -3.75 -3.46875 -5.453125q-2.265625 -1.71875 -5.71875 -1.71875q-3.953125 0 -6.625 1.90625q-2.65625 1.890625 -3.734375 5.09375q-1.078125 3.203125 -1.078125 6.59375q0 4.390625 1.28125 7.65625q1.28125 3.265625 3.96875 4.890625q2.703125 1.609375 5.84375 1.609375q3.8125 0 6.453125 -2.203125q2.65625 -2.203125 3.59375 -6.53125zm9.5234375 12.046875l0 -34.359375l4.21875 0l0 34.359375l-4.21875 0zm10.7734375 -29.515625l0 -4.84375l4.218746 0l0 4.84375l-4.218746 0zm0 29.515625l0 -24.890625l4.218746 0l0 24.890625l-4.218746 0zm27.679684 -8.015625l4.359375 0.53125q-1.03125 3.828125 -3.828125 5.9375q-2.78125 2.109375 -7.109375 2.109375q-5.46875 0 -8.671875 -3.359375q-3.1875 -3.375 -3.1875 -9.4375q0 -6.28125 3.234375 -9.75q3.234375 -3.46875 8.390625 -3.46875q4.984375 0 8.140625 3.40625q3.171875 3.390625 3.171875 9.546875q0 0.375 -0.015625 1.125l-18.5625 0q0.234375 4.109375 2.3125 6.296875q2.09375 2.171875 5.203125 2.171875q2.328125 0 3.96875 -1.21875q1.640625 -1.21875 2.59375 -3.890625zm-13.84375 -6.828125l13.890625 0q-0.28125 -3.140625 -1.59375 -4.703125q-2.015625 -2.4375 -5.21875 -2.4375q-2.90625 0 -4.890625 1.953125q-1.984375 1.9375 -2.1875 5.1875zm23.507812 14.84375l0 -24.890625l3.796875 0l0 3.53125q2.734375 -4.09375 7.921875 -4.09375q2.25 0 4.125 0.8125q1.890625 0.796875 2.828125 2.109375q0.9375 1.3125 1.3125 3.125q0.234375 1.171875 0.234375 4.09375l0 15.3125l-4.21875 0l0 -15.140625q0 -2.578125 -0.5 -3.859375q-0.484375 -1.28125 -1.734375 -2.03125q-1.25 -0.765625 -2.9375 -0.765625q-2.703125 0 -4.65625 1.71875q-1.953125 1.703125 -1.953125 6.484375l0 13.59375l-4.21875 0zm35.898438 -3.78125l0.609375 3.734375q-1.78125 0.375 -3.1875 0.375q-2.296875 0 -3.5625 -0.71875q-1.265625 -0.734375 -1.78125 -1.921875q-0.515625 -1.1875 -0.515625 -4.984375l0 -14.3125l-3.09375 0l0 -3.28125l3.09375 0l0 -6.171875l4.203125 -2.53125l0 8.703125l4.234375 0l0 3.28125l-4.234375 0l0 14.546875q0 1.8125 0.21875 2.328125q0.21875 0.515625 0.71875 0.828125q0.515625 0.296875 1.453125 0.296875q0.703125 0 1.84375 -0.171875z" fill-rule="nonzero"></path><path fill="#000000" fill-opacity="0.0" d="m630.4019 632.5374l198.74011 0l0 40.094482l-198.74011 0z" fill-rule="evenodd"></path><path fill="#000000" d="m641.55817 676.57056l4.296875 -0.375q0.296875 2.578125 1.40625 4.234375q1.125 1.65625 3.46875 2.671875q2.34375 1.015625 5.265625 1.015625q2.609375 0 4.59375 -0.765625q2.0 -0.78125 2.96875 -2.125q0.96875 -1.34375 0.96875 -2.9375q0 -1.625 -0.9375 -2.828125q-0.9375 -1.203125 -3.09375 -2.03125q-1.375 -0.53125 -6.109375 -1.671875q-4.734375 -1.140625 -6.640625 -2.140625q-2.453125 -1.296875 -3.671875 -3.203125q-1.203125 -1.90625 -1.203125 -4.28125q0 -2.59375 1.46875 -4.859375q1.484375 -2.265625 4.3125 -3.4375q2.84375 -1.171875 6.3125 -1.171875q3.828125 0 6.734375 1.234375q2.921875 1.234375 4.484375 3.625q1.578125 2.390625 1.703125 5.40625l-4.359375 0.328125q-0.359375 -3.25 -2.390625 -4.90625q-2.015625 -1.671875 -5.984375 -1.671875q-4.125 0 -6.015625 1.515625q-1.875 1.5 -1.875 3.640625q0 1.84375 1.328125 3.046875q1.3125 1.1875 6.859375 2.453125q5.546875 1.25 7.609375 2.1875q3.0 1.375 4.421875 3.5q1.4375 2.125 1.4375 4.890625q0 2.734375 -1.578125 5.171875q-1.5625 2.421875 -4.515625 3.78125q-2.9375 1.34375 -6.609375 1.34375q-4.671875 0 -7.828125 -1.359375q-3.140625 -1.375 -4.9375 -4.09375q-1.796875 -2.734375 -1.890625 -6.1875zm50.0625 3.03125l4.359375 0.53125q-1.03125 3.828125 -3.828125 5.9375q-2.78125 2.109375 -7.109375 2.109375q-5.46875 0 -8.671875 -3.359375q-3.1875 -3.375 -3.1875 -9.4375q0 -6.28125 3.234375 -9.75q3.234375 -3.46875 8.390625 -3.46875q4.984375 0 8.140625 3.40625q3.171875 3.390625 3.171875 9.546875q0 0.375 -0.015625 1.125l-18.5625 0q0.234375 4.109375 2.3125 6.296875q2.09375 2.171875 5.203125 2.171875q2.328125 0 3.96875 -1.21875q1.640625 -1.21875 2.59375 -3.890625zm-13.84375 -6.828125l13.890625 0q-0.28125 -3.140625 -1.59375 -4.703125q-2.015625 -2.4375 -5.21875 -2.4375q-2.90625 0 -4.890625 1.953125q-1.984375 1.9375 -2.1875 5.1875zm23.460938 14.84375l0 -24.890625l3.796875 0l0 3.765625q1.453125 -2.640625 2.671875 -3.484375q1.234375 -0.84375 2.71875 -0.84375q2.125 0 4.328125 1.359375l-1.453125 3.90625q-1.546875 -0.90625 -3.09375 -0.90625q-1.375 0 -2.484375 0.828125q-1.09375 0.828125 -1.5625 2.3125q-0.703125 2.25 -0.703125 4.921875l0 13.03125l-4.21875 0zm22.9375 0l-9.46875 -24.890625l4.453125 0l5.34375 14.90625q0.875 2.40625 1.59375 5.015625q0.5625 -1.96875 1.578125 -4.734375l5.53125 -15.1875l4.328125 0l-9.421875 24.890625l-3.9375 0zm34.125 -8.015625l4.359375 0.53125q-1.03125 3.828125 -3.828125 5.9375q-2.78125 2.109375 -7.109375 2.109375q-5.46875 0 -8.671875 -3.359375q-3.1875 -3.375 -3.1875 -9.4375q0 -6.28125 3.234375 -9.75q3.234375 -3.46875 8.390625 -3.46875q4.984375 0 8.140625 3.40625q3.171875 3.390625 3.171875 9.546875q0 0.375 -0.015625 1.125l-18.5625 0q0.234375 4.109375 2.3125 6.296875q2.09375 2.171875 5.203125 2.171875q2.328125 0 3.96875 -1.21875q1.640625 -1.21875 2.59375 -3.890625zm-13.84375 -6.828125l13.890625 0q-0.28125 -3.140625 -1.59375 -4.703125q-2.015625 -2.4375 -5.21875 -2.4375q-2.90625 0 -4.890625 1.953125q-1.984375 1.9375 -2.1875 5.1875zm23.460938 14.84375l0 -24.890625l3.796875 0l0 3.765625q1.453125 -2.640625 2.671875 -3.484375q1.234375 -0.84375 2.71875 -0.84375q2.125 0 4.328125 1.359375l-1.453125 3.90625q-1.546875 -0.90625 -3.09375 -0.90625q-1.375 0 -2.484375 0.828125q-1.09375 0.828125 -1.5625 2.3125q-0.703125 2.25 -0.703125 4.921875l0 13.03125l-4.21875 0z" fill-rule="nonzero"></path><path fill="#d9d9d9" d="m207.99443 269.84387l246.86247 -160.98746l-12.421387 -19.051826l46.791046 9.7276l-9.972168 46.744835l-12.421417 -19.051819l-246.86247 160.98744z" fill-rule="evenodd"></path><path stroke="#000000" stroke-width="4.0" stroke-linejoin="round" stroke-linecap="butt" d="m207.99443 269.84387l246.86247 -160.98746l-12.421387 -19.051826l46.791046 9.7276l-9.972168 46.744835l-12.421417 -19.051819l-246.86247 160.98744z" fill-rule="evenodd"></path><path fill="#000000" fill-opacity="0.0" d="m214.6833 183.23538l152.7874 -99.21259l33.13385 51.055122l-152.78738 99.2126z" fill-rule="evenodd"></path><path fill="#000000" d="m252.68765 215.07379l-2.948532 1.9146271l-12.197693 -18.79512q-0.397995 1.7115936 -1.464325 3.8571777q-1.0748444 2.1324768 -2.127594 3.5240173l-1.8458099 -2.844162q1.7197266 -2.7747955 2.495697 -5.6260834q0.7759857 -2.8512878 0.5369415 -4.9130554l1.9001617 -1.2338715l15.651154 24.11647zm9.2092285 -5.9800262l-2.1775513 -3.3553314l3.3547668 -2.178421l2.1775513 3.3553314l-3.3547668 2.178421z" fill-rule="nonzero"></path><path fill="#000000" d="m282.3218 179.19406q-3.8787537 -5.9766846 -2.8627014 -11.443054q1.0160522 -5.4663696 6.0875244 -8.7595215q3.3285522 -2.1614075 7.031128 -2.3114166q3.7025452 -0.15000916 6.9374695 1.79216q3.2479858 1.9336548 5.587158 5.538025q2.3731995 3.656784 2.7637024 7.5018463q0.4036255 3.8365479 -1.3347168 7.0705566q-1.7383728 3.234024 -4.8703613 5.2677765q-3.3940735 2.203949 -7.1306763 2.3015442q-3.7234802 0.08906555 -6.9367676 -1.8484955q-3.2132874 -1.9375763 -5.271759 -5.109421zm3.3101807 -2.074936q2.8154907 4.3383484 6.772766 5.327057q3.9572754 0.9887085 7.4823914 -1.3003387q3.5906677 -2.3315887 4.263916 -6.345749q0.6778259 -4.035782 -2.333313 -8.675583q-1.905365 -2.9359283 -4.3218384 -4.4780273q-2.4033508 -1.5506287 -5.0906677 -1.5009613q-2.6827087 0.028045654 -5.0546265 1.5682526q-3.3809814 2.1954498 -4.312866 6.0980988q-0.9272766 3.8810425 2.5942383 9.307251zm35.2995 3.1232452l-15.625641 -24.077133l2.686432 -1.7444458l1.4715576 2.2674713q0.08441162 -1.9364624 0.84313965 -3.3792725q0.77178955 -1.4513092 2.4754028 -2.557541q2.2277527 -1.4466095 4.679901 -1.3994446q2.4436035 0.034057617 4.6694946 1.569519q2.2173462 1.5223541 3.833496 4.0126343q1.73526 2.6737823 2.1651 5.431381q0.4298706 2.7575989 -0.6647644 5.089203q-1.0815125 2.3231049 -3.0864868 3.625061q-1.480835 0.9615631 -3.060028 1.1114044q-1.574585 0.12820435 -2.942505 -0.34355164l5.503418 8.480087l-2.9485168 1.9146271zm-7.2362366 -17.005325q2.1775513 3.3553467 4.573578 4.0910034q2.4006042 0.71403503 4.340088 -0.5453644q1.9656982 -1.276413 2.2745056 -3.8429718q0.3218994 -2.5750732 -1.9407043 -6.0614777q-2.1605225 -3.3291168 -4.5951843 -4.0955963q-2.4346313 -0.76646423 -4.334778 0.46740723q-1.887085 1.225357 -2.2018738 3.9262238q-0.30166626 2.692337 1.8843689 6.0607758zm29.835754 -15.12616l3.2869263 -1.594101q1.0144958 3.1418 0.023071289 5.8907776q-0.9867859 2.727356 -4.0270386 4.7015533q-3.813446 2.4762573 -7.5769043 1.5852661q-3.75885 -0.9126129 -6.5148315 -5.15921q-2.8495178 -4.3907776 -2.169159 -8.27916q0.6934509 -3.896881 4.2972107 -6.2369843q3.4858398 -2.2635193 7.248596 -1.3161774q3.7542725 0.93421936 6.552765 5.246353q0.1701355 0.26213074 0.48416138 0.803421l-12.973541 8.424362q2.0246887 2.7466583 4.474518 3.3356018q2.4413147 0.5758362 4.6297607 -0.84524536q1.6118774 -1.0466614 2.1990662 -2.6389313q0.6003113 -1.600769 0.06539917 -3.9175262zm-12.772003 1.5307312l9.71051 -6.3055115q-1.6256104 -2.074295 -3.2574158 -2.579605q-2.5079956 -0.7933655 -4.761963 0.67025757q-2.0312195 1.3189697 -2.535675 3.584076q-0.49136353 2.256607 0.84454346 4.630783zm23.158173 -0.3012848l-11.296051 -17.405792l2.6471252 -1.7189026l1.6076355 2.4771729q0.0635376 -4.121277 3.6803894 -6.469887q1.5725708 -1.0211334 3.2572937 -1.2953796q1.6893005 -0.29586792 2.939972 0.19613647q1.2506409 0.4920044 2.3293152 1.5800629q0.6977234 0.70199585 2.0332031 2.759758l6.9409485 10.695129l-2.9485474 1.9146271l-6.8728943 -10.590271q-1.1653442 -1.7956238 -2.0975647 -2.457138q-0.9191284 -0.6700134 -2.145874 -0.6372528q-1.2267761 0.03276062 -2.406189 0.79859924q-1.8739319 1.2168579 -2.4673767 3.3161774q-0.58880615 2.0776978 1.5802307 5.419922l6.1669006 9.502411l-2.9485168 1.9146271z" fill-rule="nonzero"></path><path fill="#000000" fill-opacity="0.0" d="m262.40222 501.89056l151.08661 75.653564l-27.275574 54.393677l-151.08662 -75.6535z" fill-rule="evenodd"></path><path fill="#000000" d="m254.10153 542.28687l3.3536682 1.1550293q-0.80682373 2.9335938 -0.10284424 4.7714233q0.7250061 1.8308716 2.583191 2.7613525q2.2214355 1.1123047 4.51474 0.33850098q2.3072815 -0.76690674 3.4418945 -3.029602q1.0856018 -2.164917 0.36791992 -4.2891846q-0.70370483 -2.1173096 -2.8832397 -3.2086792q-0.89416504 -0.44769287 -2.3965454 -0.76312256l1.729065 -2.5766602q0.307312 0.18878174 0.5029297 0.28674316q1.9978943 1.0004272 4.129883 0.75738525q2.132019 -0.24304199 3.2246094 -2.421936q0.86846924 -1.7319336 0.26220703 -3.4509277q-0.5923157 -1.7120361 -2.4505005 -2.642456q-1.8302307 -0.9165039 -3.6410522 -0.37280273q-1.7898254 0.5366821 -3.2947388 2.6663818l-2.8634033 -2.1327515q2.1557007 -2.869812 5.0639954 -3.5803833q2.9292908 -0.71746826 5.9610596 0.80059814q2.0957031 1.0493774 3.4008484 2.838745q1.3261108 1.7824097 1.4847412 3.8014526q0.15866089 2.019104 -0.7168274 3.7650146q-0.8334656 1.6621094 -2.4140015 2.583191q-1.5735474 0.9071045 -3.7191772 0.82873535q2.0111694 1.6710815 2.4421387 3.9488525q0.43096924 2.277771 -0.81573486 4.763977q-1.6809387 3.3521729 -5.2955627 4.460449q-3.614624 1.1082764 -7.3589478 -0.7666626q-3.367096 -1.6859741 -4.5939636 -4.8165894q-1.2128754 -3.1236572 0.08364868 -6.476074zm18.24823 17.595032l1.7929993 -3.5756226l3.5766602 1.7908936l-1.7929993 3.5756836l-3.5766602 -1.7909546zm42.149292 9.869385l2.960785 2.565918q-3.1629333 3.6235962 -7.0288696 4.4312744q-3.8659363 0.80773926 -7.8617554 -1.1931152q-4.135498 -2.0707397 -5.8937073 -5.0480957q-1.7512207 -2.991272 -1.502533 -6.868408q0.26263428 -3.8701172 2.0976562 -7.529541q2.0031128 -3.994629 5.0178223 -6.2071533q3.021698 -2.2264404 6.6143494 -2.3496704q3.59964 -0.13720703 6.9946594 1.5627441q3.8421326 1.9238892 5.4742126 5.187561q1.6460876 3.27063 0.8869934 7.3290405l-3.7173767 -0.88287354q0.5065918 -3.241211 -0.5605469 -5.3657227q-1.0531921 -2.1174927 -3.6099548 -3.397766q-2.961914 -1.4830933 -5.6532288 -1.0657959q-2.6773682 0.42425537 -4.685364 2.4069214q-1.98703 1.975647 -3.2617188 4.5177q-1.6319275 3.2543945 -1.9075317 6.1744385q-0.26864624 2.9060059 1.1199341 5.121582q1.4095459 2.2085571 3.7567139 3.3839111q2.8501587 1.427124 5.6395874 0.7793579q2.7964172 -0.6616821 5.119873 -3.5523071zm2.590454 12.533142l12.838104 -25.602173l3.1435547 1.5740967l-12.838104 25.602112l-3.1435547 -1.5740356zm11.493042 -5.8480835q2.5844421 -5.1539917 6.6882324 -6.1920166q3.4256897 -0.87091064 6.8766174 0.8571167q3.8141785 1.9098511 4.984497 5.6412354q1.1773071 3.7174683 -1.0359192 8.1311035q-1.7999878 3.5895996 -3.905365 5.104126q-2.0983582 1.5005493 -4.726471 1.6174927q-2.6210938 0.10296631 -5.038147 -1.1073608q-3.8980103 -1.9518433 -5.0473633 -5.6552734q-1.1493835 -3.7034302 1.2039185 -8.396423zm3.2273865 1.6160278q-1.7859802 3.5616455 -1.1246643 6.1120605q0.67529297 2.557373 3.036438 3.739685q2.3332214 1.168335 4.773529 0.17102051q2.4613037 -1.0043335 4.2893066 -4.6497803q1.72995 -3.4499512 1.0476685 -5.993347q-0.67529297 -2.557373 -2.9945374 -3.718689q-2.3611755 -1.182312 -4.808441 -0.20599365q-2.433319 0.9833374 -4.2192993 4.545044zm14.703461 12.045593l3.3467712 1.064209q-0.66607666 1.9906006 0.017211914 3.5908813q0.70425415 1.5933228 2.855835 2.6706543q2.1655579 1.0844116 3.654663 0.729126q1.4891052 -0.3552246 2.0844421 -1.5424805q0.5392761 -1.0754395 -0.08166504 -2.1378174q-0.43255615 -0.7407837 -2.6741028 -2.6845093q-3.0306396 -2.6009521 -4.056732 -3.901062q-1.0050964 -1.3071289 -1.1363525 -2.788269q-0.11727905 -1.4741211 0.5621033 -2.8289795q0.62335205 -1.243103 1.7214661 -2.0037842q1.105133 -0.77471924 2.433319 -0.98339844q0.9996338 -0.1809082 2.446167 0.07159424q1.4605103 0.25952148 2.9135132 0.98706055q2.179535 1.0913696 3.5130005 2.5454102q1.3474121 1.4610596 1.5904846 2.9282837q0.24310303 1.4672852 -0.3670044 3.4159546l-3.2838135 -1.1200562q0.5118408 -1.5435791 -0.09487915 -2.8434448q-0.5857239 -1.3067627 -2.4299622 -2.2302246q-2.1655579 -1.0843506 -3.4518738 -0.8198242q-1.2792969 0.25061035 -1.7625732 1.2143555q-0.30114746 0.60058594 -0.16906738 1.2783813q0.13204956 0.7126465 0.7952881 1.4466553q0.36999512 0.41241455 2.360077 2.1953125q2.8909302 2.565918 3.9170532 3.7961426q1.0471191 1.2233276 1.2413025 2.6835327q0.21514893 1.4533081 -0.590271 3.0595093q-0.78445435 1.5643921 -2.406952 2.4993896q-1.601532 0.92803955 -3.7191772 0.82873535q-2.0966797 -0.10626221 -4.2901917 -1.2045898q-3.6046143 -1.8049316 -4.7552795 -4.2509155q-1.1437073 -2.4599 -0.1828003 -5.6658325zm32.06482 15.496582l3.0382385 2.0281372q-2.197235 2.4645386 -5.070404 3.0004883q-2.8521729 0.52893066 -6.0935364 -1.0941162q-4.065674 -2.0357666 -5.2010803 -5.732239q-1.1144104 -3.7034302 1.1548462 -8.228821q2.346283 -4.679077 6.0450745 -6.0597534q3.7127686 -1.3736572 7.554901 0.55023193q3.7163696 1.8609009 4.802826 5.585266q1.0934448 3.7103882 -1.210846 8.305603q-0.14007568 0.2793579 -0.44815063 0.82403564l-13.8316345 -6.9259033q-1.3452148 3.1358643 -0.6138611 5.54657q0.7383728 2.3967285 3.0715942 3.5650635q1.7184753 0.86047363 3.3892212 0.5612793q1.6847229 -0.29229736 3.4128113 -1.9258423zm-7.78244 -10.240051l10.352783 5.18396q0.96707153 -2.451477 0.5774231 -4.114441q-0.58444214 -2.564331 -2.9875183 -3.7675781q-2.1655579 -1.0844116 -4.3749084 -0.37335205q-2.195404 0.7180176 -3.5677795 3.0714111z" fill-rule="nonzero"></path><path fill="#000000" fill-opacity="0.0" d="m565.53235 497.76642l292.97638 -1.228363" fill-rule="evenodd"></path><path stroke="#000000" stroke-width="4.0" stroke-linejoin="round" stroke-linecap="butt" d="m565.53235 497.76642l292.97638 -1.228363" fill-rule="evenodd"></path><path fill="#000000" fill-opacity="0.0" d="m858.5087 496.53806l97.322876 -97.322845" fill-rule="evenodd"></path><path stroke="#000000" stroke-width="4.0" stroke-linejoin="round" stroke-linecap="butt" d="m858.5087 496.53806l97.322876 -97.322845" fill-rule="evenodd"></path><path fill="#000000" fill-opacity="0.0" d="m565.53235 225.7664l292.97638 -1.2283478" fill-rule="evenodd"></path><path stroke="#000000" stroke-width="4.0" stroke-linejoin="round" stroke-linecap="butt" d="m565.53235 225.7664l292.97638 -1.2283478" fill-rule="evenodd"></path><path fill="#000000" fill-opacity="0.0" d="m858.5087 224.53806l97.322876 -97.32283" fill-rule="evenodd"></path><path stroke="#000000" stroke-width="4.0" stroke-linejoin="round" stroke-linecap="butt" d="m858.5087 224.53806l97.322876 -97.32283" fill-rule="evenodd"></path><path fill="#000000" fill-opacity="0.0" d="m-241.56168 245.30446l539.30707 0l0 62.929123l-539.30707 0z" fill-rule="evenodd"></path><path fill="#cccccc" d="m204.62709 449.27548l44.90648 -13.875275l-9.051971 17.702911l264.8012 135.34116l9.051971 -17.702942l15.048218 44.518433l-44.906494 13.875244l9.051971 -17.70288l-264.80118 -135.34116l-9.051987 17.702942z" fill-rule="evenodd"></path><path stroke="#000000" stroke-width="4.0" stroke-linejoin="round" stroke-linecap="butt" d="m204.62709 449.27548l44.90648 -13.875275l-9.051971 17.702911l264.8012 135.34116l9.051971 -17.702942l15.048218 44.518433l-44.906494 13.875244l9.051971 -17.70288l-264.80118 -135.34116l-9.051987 17.702942z" fill-rule="evenodd"></path><path fill="#cccccc" d="m231.21796 364.15485l33.677032 -32.80313l0 19.889526l211.57507 0l0 -19.889526l33.677032 32.80313l-33.677032 32.80316l0 -19.889526l-211.57507 0l0 19.889526z" fill-rule="evenodd"></path><path stroke="#000000" stroke-width="4.0" stroke-linejoin="round" stroke-linecap="butt" d="m231.21796 364.15485l33.677032 -32.80313l0 19.889526l211.57507 0l0 -19.889526l33.677032 32.80313l-33.677032 32.80316l0 -19.889526l-211.57507 0l0 19.889526z" fill-rule="evenodd"></path><path fill="#000000" fill-opacity="0.0" d="m279.59662 281.4751l182.17325 -0.03149414l0 60.850372l-182.17325 0.03149414z" fill-rule="evenodd"></path><path fill="#000000" d="m308.73724 325.49506l0 3.375l-18.921875 0.0032653809q-0.046875 -1.265625 0.40625 -2.437561q0.71875 -1.9376221 2.3125 -3.8128967q1.59375 -1.8752747 4.59375 -4.3445435q4.671875 -3.828949 6.3125 -6.0635986q1.640625 -2.2346802 1.640625 -4.219055q0 -2.09375 -1.5 -3.5309753q-1.484375 -1.4372559 -3.890625 -1.4368286q-2.53125 4.272461E-4 -4.0625 1.5319519q-1.515625 1.5158997 -1.546875 4.2190247l-3.609375 -0.37438965q0.375 -4.046936 2.796875 -6.1567383q2.421875 -2.1253967 6.5 -2.1260986q4.125 -7.324219E-4 6.515625 2.2801208q2.40625 2.2808228 2.40625 5.6714478q0 1.71875 -0.703125 3.375122q-0.703125 1.6563721 -2.328125 3.5003967q-1.625 1.8283997 -5.421875 5.032196q-3.15625 2.6567993 -4.0625 3.610077q-0.890625 0.9376526 -1.484375 1.9064941l14.046875 -0.0024108887zm5.7460938 3.373993l0 -4.0l4.0 -6.713867E-4l0 4.0l-4.0 6.713867E-4zm20.382812 -9.2066345l3.578125 -0.31314087q0.25 2.1562195 1.171875 3.531067q0.9375 1.3748474 2.890625 2.2338562q1.953125 0.8434143 4.390625 0.8430176q2.171875 -3.9672852E-4 3.828125 -0.6412964q1.65625 -0.65652466 2.46875 -1.7816772q0.8125 -1.1251526 0.8125 -2.4532776q0 -1.34375 -0.78125 -2.3435974q-0.78125 -1.0155029 -2.578125 -1.6870728q-1.15625 -0.45291138 -5.109375 -1.38974q-3.9375 -0.9524231 -5.515625 -1.7958984q-2.046875 -1.0777893 -3.0625 -2.6713562q-1.0 -1.5935669 -1.0 -3.562317q0 -2.171875 1.234375 -4.0470886q1.234375 -1.8908386 3.59375 -2.8600159q2.359375 -0.9847717 5.25 -0.9852905q3.1875 -5.493164E-4 5.609375 1.030304q2.4375 1.0151978 3.75 3.0149536q1.3125 1.9841614 1.40625 4.515381l-3.640625 0.26626587q-0.28125 -2.718689 -1.984375 -4.0934143q-1.6875 -1.3903198 -4.984375 -1.38974q-3.4375 5.79834E-4 -5.015625 1.2664795q-1.5625 1.2502747 -1.5625 3.0315247q0 1.546875 1.109375 2.531067q1.09375 0.9997864 5.703125 2.045868q4.625 1.0460815 6.34375 1.8270264q2.5 1.1558228 3.6875 2.9212341q1.203125 1.7654419 1.203125 4.062317q0 2.296875 -1.3125 4.3127136q-1.3125 2.0158386 -3.765625 3.1412659q-2.4375 1.1254272 -5.515625 1.1259766q-3.875 6.713867E-4 -6.515625 -1.1238708q-2.625 -1.1401978 -4.125 -3.405548q-1.484375 -2.2810059 -1.5625 -5.1559753zm41.726562 2.5083923l3.625 0.45251465q-0.859375 3.1876526 -3.1875 4.9536743q-2.3125 1.7503967 -5.9375 1.7510376q-4.546875 7.6293945E-4 -7.21875 -2.7956543q-2.65625 -2.8120422 -2.65625 -7.874542q0 -5.234375 2.6875 -8.125458q2.703125 -2.8910828 7.0 -2.8918152q4.15625 -7.324219E-4 6.796875 2.8425598q2.640625 2.8276672 2.640625 7.968292q0 0.3125 -0.03125 0.9375l-15.46875 0.0026855469q0.203125 3.4062195 1.9375 5.2340393q1.734375 1.8121948 4.34375 1.8117371q1.921875 -3.3569336E-4 3.28125 -1.0161743q1.375 -1.0158691 2.1875 -3.2503967zm-11.546875 -5.669861l11.578125 -0.0020141602q-0.234375 -2.6249695 -1.328125 -3.9372559q-1.671875 -2.0309753 -4.359375 -2.0305176q-2.421875 4.272461E-4 -4.078125 1.6257019q-1.640625 1.6253052 -1.8125 4.3440857zm19.589844 12.355988l0 -20.75l3.15625 -5.493164E-4l0 2.953125q2.296875 -3.4222717 6.609375 -3.4230347q1.875 -3.0517578E-4 3.4375 0.68692017q1.578125 0.67160034 2.359375 1.7652283q0.78125 1.0935974 1.09375 2.5935364q0.203125 0.9687195 0.203125 3.4218445l0 12.75l-3.515625 6.1035156E-4l0 -12.625q0 -2.140625 -0.421875 -3.2030334q-0.40625 -1.062439 -1.453125 -1.7028809q-1.046875 -0.6404419 -2.453125 -0.64019775q-2.234375 3.6621094E-4 -3.875 1.4381714q-1.625 1.4221497 -1.625 5.4065247l0 11.328125l-3.515625 6.1035156E-4zm35.69922 -0.006164551l0 -2.625q-1.96875 3.0940857 -5.796875 3.0947266q-2.484375 4.272461E-4 -4.5625 -1.3585815q-2.078125 -1.3746338 -3.21875 -3.8275757q-1.140625 -2.4529114 -1.140625 -5.6404114q0 -3.09375 1.03125 -5.625183q1.03125 -2.531433 3.09375 -3.8755188q2.078125 -1.3597412 4.640625 -1.360199q1.875 -3.0517578E-4 3.328125 0.79629517q1.46875 0.79663086 2.390625 2.0621033l0 -10.28125l3.5 -6.1035156E-4l0 28.640625l-3.265625 5.79834E-4zm-11.109375 -10.357483q0 3.984375 1.671875 5.9684753q1.6875 1.9684448 3.96875 1.9680786q2.3125 -4.272461E-4 3.921875 -1.8757019q1.609375 -1.8908997 1.609375 -5.7658997q0 -4.25 -1.640625 -6.2341003q-1.640625 -1.9996948 -4.046875 -1.9992981q-2.34375 4.272461E-4 -3.921875 1.9225769q-1.5625 1.9064941 -1.5625 6.015869z" fill-rule="nonzero"></path></g></svg>

