<?xml version="1.0" standalone="yes"?>

<svg version="1.1" viewBox="0.0 0.0 801.7742782152231 753.8530183727034" fill="none" stroke="none" stroke-linecap="square" stroke-miterlimit="10" xmlns="http://www.w3.org/2000/svg" xmlns:xlink="http://www.w3.org/1999/xlink"><clipPath id="p.0"><path d="m0 0l801.7743 0l0 753.853l-801.7743 0l0 -753.853z" clip-rule="nonzero"></path></clipPath><g clip-path="url(#p.0)"><path fill="#000000" fill-opacity="0.0" d="m0 0l801.7743 0l0 753.853l-801.7743 0z" fill-rule="evenodd"></path><path fill="#000000" fill-opacity="0.0" d="m14.283464 590.43646l0 0c0 -11.518494 9.337576 -20.85608 20.856062 -20.85608l728.5556 0c5.531372 0 10.836182 2.1973267 14.747437 6.1085815c3.911316 3.911255 6.1086426 9.2161255 6.1086426 14.747498l0 83.42169c0 11.518494 -9.337585 20.85608 -20.85608 20.85608l-728.5556 0c-11.518486 0 -20.856062 -9.337585 -20.856062 -20.85608z" fill-rule="evenodd"></path><path stroke="#000000" stroke-width="8.0" stroke-linejoin="round" stroke-linecap="butt" d="m14.283464 590.43646l0 0c0 -11.518494 9.337576 -20.85608 20.856062 -20.85608l728.5556 0c5.531372 0 10.836182 2.1973267 14.747437 6.1085815c3.911316 3.911255 6.1086426 9.2161255 6.1086426 14.747498l0 83.42169c0 11.518494 -9.337585 20.85608 -20.85608 20.85608l-728.5556 0c-11.518486 0 -20.856062 -9.337585 -20.856062 -20.85608z" fill-rule="evenodd"></path><path fill="#000000" d="m345.01108 658.5473l0 -46.09375l-17.203125 0l0 -6.15625l41.40625 0l0 6.15625l-17.28125 0l0 46.09375l-6.921875 0zm68.79175 -18.328125l6.90625 1.75q-2.171875 8.515625 -7.828125 13.0q-5.640625 4.46875 -13.8125 4.46875q-8.4375 0 -13.734375 -3.4375q-5.296875 -3.4375 -8.0625 -9.953125q-2.75 -6.53125 -2.75 -14.015625q0 -8.171875 3.109375 -14.25q3.125 -6.078125 8.875 -9.21875q5.765625 -3.15625 12.671875 -3.15625q7.84375 0 13.1875 4.0q5.359375 3.984375 7.453125 11.21875l-6.8125 1.59375q-1.8125 -5.703125 -5.265625 -8.296875q-3.453125 -2.609375 -8.703125 -2.609375q-6.015625 0 -10.0625 2.890625q-4.046875 2.890625 -5.6875 7.765625q-1.640625 4.859375 -1.640625 10.015625q0 6.671875 1.9375 11.65625q1.953125 4.96875 6.046875 7.421875q4.09375 2.453125 8.875 2.453125q5.8125 0 9.828125 -3.34375q4.03125 -3.359375 5.46875 -9.953125zm15.658356 18.328125l0 -52.25l19.71875 0q5.203125 0 7.953125 0.5q3.84375 0.640625 6.4375 2.4375q2.609375 1.796875 4.1875 5.046875q1.59375 3.234375 1.59375 7.125q0 6.671875 -4.25 11.28125q-4.234375 4.609375 -15.3125 4.609375l-13.40625 0l0 21.25l-6.921875 0zm6.921875 -27.40625l13.515625 0q6.6875 0 9.5 -2.5q2.828125 -2.5 2.828125 -7.015625q0 -3.28125 -1.65625 -5.609375q-1.65625 -2.34375 -4.375 -3.09375q-1.734375 -0.46875 -6.453125 -0.46875l-13.359375 0l0 18.6875z" fill-rule="nonzero"></path><path fill="#000000" fill-opacity="0.0" d="m14.283464 453.3875l0 0c0 -11.518494 9.337576 -20.856049 20.856062 -20.856049l728.5556 0c5.531372 0 10.836182 2.1973267 14.747437 6.1085815c3.911316 3.9112854 6.1086426 9.216095 6.1086426 14.747467l0 83.42175c0 11.518494 -9.337585 20.856018 -20.85608 20.856018l-728.5556 0c-11.518486 0 -20.856062 -9.337524 -20.856062 -20.856018z" fill-rule="evenodd"></path><path stroke="#000000" stroke-width="8.0" stroke-linejoin="round" stroke-linecap="butt" stroke-dasharray="8.0,24.0" d="m14.283464 453.3875l0 0c0 -11.518494 9.337576 -20.856049 20.856062 -20.856049l728.5556 0c5.531372 0 10.836182 2.1973267 14.747437 6.1085815c3.911316 3.9112854 6.1086426 9.216095 6.1086426 14.747467l0 83.42175c0 11.518494 -9.337585 20.856018 -20.85608 20.856018l-728.5556 0c-11.518486 0 -20.856062 -9.337524 -20.856062 -20.856018z" fill-rule="evenodd"></path><path fill="#000000" d="m351.09787 521.49835l0 -46.09372l-17.203125 0l0 -6.15625l41.40625 0l0 6.15625l-17.28125 0l0 46.09372l-6.921875 0zm31.213623 0l0 -52.24997l6.921875 0l0 46.078094l25.734375 0l0 6.171875l-32.65625 0zm38.719116 -16.78122l6.515625 -0.578125q0.46875 3.921875 2.15625 6.4375q1.703125 2.5155945 5.265625 4.0624695q3.5625 1.546875 8.015625 1.546875q3.953125 0 6.984375 -1.171875q3.03125 -1.171875 4.515625 -3.2187195q1.484375 -2.0625 1.484375 -4.484375q0 -2.453125 -1.4375 -4.28125q-1.421875 -1.84375 -4.703125 -3.09375q-2.09375 -0.828125 -9.296875 -2.546875q-7.203125 -1.734375 -10.09375 -3.265625q-3.734375 -1.953125 -5.578125 -4.859375q-1.828125 -2.90625 -1.828125 -6.515625q0 -3.953125 2.234375 -7.390625q2.25 -3.4375 6.5625 -5.21875q4.3125 -1.78125 9.59375 -1.78125q5.8125 0 10.25 1.875q4.4375 1.859375 6.8125 5.5q2.390625 3.640625 2.578125 8.234375l-6.640625 0.5q-0.53125 -4.953125 -3.609375 -7.484375q-3.078125 -2.53125 -9.109375 -2.53125q-6.265625 0 -9.140625 2.296875q-2.875 2.296875 -2.875 5.546875q0 2.8125 2.03125 4.625q2.0 1.828125 10.421875 3.734375q8.4375 1.90625 11.578125 3.328125q4.5625 2.09375 6.734375 5.328125q2.171875 3.21875 2.171875 7.4375q0 4.15625 -2.390625 7.8593445q-2.390625 3.6875 -6.859375 5.734375q-4.46875 2.046875 -10.0625 2.046875q-7.09375 0 -11.890625 -2.0625q-4.796875 -2.078125 -7.53125 -6.21875q-2.71875 -4.1562195 -2.859375 -9.3905945z" fill-rule="nonzero"></path><path fill="#000000" fill-opacity="0.0" d="m14.283464 316.3386l0 0c0 -11.518494 9.337576 -20.85608 20.856062 -20.85608l728.5556 0c5.531372 0 10.836182 2.1973267 14.747437 6.108612c3.911316 3.911255 6.1086426 9.216095 6.1086426 14.747467l0 83.42172c0 11.518494 -9.337585 20.856049 -20.85608 20.856049l-728.5556 0c-11.518486 0 -20.856062 -9.337555 -20.856062 -20.856049z" fill-rule="evenodd"></path><path stroke="#000000" stroke-width="8.0" stroke-linejoin="round" stroke-linecap="butt" d="m14.283464 316.3386l0 0c0 -11.518494 9.337576 -20.85608 20.856062 -20.85608l728.5556 0c5.531372 0 10.836182 2.1973267 14.747437 6.108612c3.911316 3.911255 6.1086426 9.216095 6.1086426 14.747467l0 83.42172c0 11.518494 -9.337585 20.856049 -20.85608 20.856049l-728.5556 0c-11.518486 0 -20.856062 -9.337555 -20.856062 -20.856049z" fill-rule="evenodd"></path><path fill="#000000" d="m226.69363 384.44946l-13.859375 -52.25l7.09375 0l7.953125 34.25q1.28125 5.375 2.203125 10.6875q2.0 -8.375 2.359375 -9.65625l9.9375 -35.28125l8.34375 0l7.484375 26.4375q2.8125 9.84375 4.0625 18.5q1.0 -4.953125 2.609375 -11.359375l8.1875 -33.578125l6.953125 0l-14.328125 52.25l-6.65625 0l-11.015625 -39.8125q-1.390625 -5.0 -1.640625 -6.140625q-0.828125 3.609375 -1.53125 6.140625l-11.09375 39.8125l-7.0625 0zm85.17932 -12.1875l6.640625 0.8125q-1.578125 5.8125 -5.828125 9.03125q-4.234375 3.203125 -10.828125 3.203125q-8.296875 0 -13.171875 -5.109375q-4.859375 -5.125 -4.859375 -14.359375q0 -9.546875 4.921875 -14.8125q4.921875 -5.28125 12.765625 -5.28125q7.59375 0 12.390625 5.171875q4.8125 5.15625 4.8125 14.53125q0 0.578125 -0.03125 1.71875l-28.234375 0q0.359375 6.234375 3.53125 9.546875q3.171875 3.3125 7.921875 3.3125q3.53125 0 6.015625 -1.84375q2.5 -1.859375 3.953125 -5.921875zm-21.0625 -10.375l21.140625 0q-0.421875 -4.78125 -2.421875 -7.171875q-3.0625 -3.703125 -7.953125 -3.703125q-4.421875 0 -7.4375 2.96875q-3.0 2.953125 -3.328125 7.90625zm41.85974 22.5625l-5.953125 0l0 -52.25l6.40625 0l0 18.640625q4.0625 -5.09375 10.375 -5.09375q3.5 0 6.609375 1.40625q3.125 1.40625 5.140625 3.953125q2.015625 2.546875 3.15625 6.15625q1.140625 3.59375 1.140625 7.6875q0 9.734375 -4.8125 15.046875q-4.8125 5.3125 -11.546875 5.3125q-6.703125 0 -10.515625 -5.59375l0 4.734375zm-0.078125 -19.21875q0 6.8125 1.859375 9.84375q3.03125 4.953125 8.1875 4.953125q4.21875 0 7.28125 -3.65625q3.0625 -3.65625 3.0625 -10.890625q0 -7.40625 -2.9375 -10.9375q-2.9375 -3.53125 -7.109375 -3.53125q-4.21875 0 -7.28125 3.65625q-3.0625 3.65625 -3.0625 10.5625zm33.406616 2.4375l6.515625 -0.578125q0.46875 3.921875 2.15625 6.4375q1.703125 2.515625 5.265625 4.0625q3.5625 1.546875 8.015625 1.546875q3.953125 0 6.984375 -1.171875q3.03125 -1.171875 4.515625 -3.21875q1.484375 -2.0625 1.484375 -4.484375q0 -2.453125 -1.4375 -4.28125q-1.421875 -1.84375 -4.703125 -3.09375q-2.09375 -0.828125 -9.296875 -2.546875q-7.203125 -1.734375 -10.09375 -3.265625q-3.734375 -1.953125 -5.578125 -4.859375q-1.828125 -2.90625 -1.828125 -6.515625q0 -3.953125 2.234375 -7.390625q2.25 -3.4375 6.5625 -5.21875q4.3125 -1.78125 9.59375 -1.78125q5.8125 0 10.25 1.875q4.4375 1.859375 6.8125 5.5q2.390625 3.640625 2.578125 8.234375l-6.640625 0.5q-0.53125 -4.953125 -3.609375 -7.484375q-3.078125 -2.53125 -9.109375 -2.53125q-6.265625 0 -9.140625 2.296875q-2.875 2.296875 -2.875 5.546875q0 2.8125 2.03125 4.625q2.0 1.828125 10.421875 3.734375q8.4375 1.90625 11.578125 3.328125q4.5625 2.09375 6.734375 5.328125q2.171875 3.21875 2.171875 7.4375q0 4.15625 -2.390625 7.859375q-2.390625 3.6875 -6.859375 5.734375q-4.46875 2.046875 -10.0625 2.046875q-7.09375 0 -11.890625 -2.0625q-4.796875 -2.078125 -7.53125 -6.21875q-2.71875 -4.15625 -2.859375 -9.390625zm48.049927 -2.140625q0 -10.515625 5.84375 -15.578125q4.890625 -4.203125 11.90625 -4.203125q7.8125 0 12.765625 5.109375q4.953125 5.109375 4.953125 14.125q0 7.3125 -2.203125 11.5q-2.1875 4.1875 -6.375 6.515625q-4.1875 2.3125 -9.140625 2.3125q-7.953125 0 -12.859375 -5.09375q-4.890625 -5.109375 -4.890625 -14.6875zm6.59375 0q0 7.265625 3.171875 10.890625q3.171875 3.609375 7.984375 3.609375q4.78125 0 7.953125 -3.625q3.171875 -3.640625 3.171875 -11.09375q0 -7.015625 -3.1875 -10.640625q-3.1875 -3.625 -7.9375 -3.625q-4.8125 0 -7.984375 3.609375q-3.171875 3.59375 -3.171875 10.875zm61.281616 5.0625l6.3125 0.8125q-1.03125 6.53125 -5.296875 10.21875q-4.265625 3.6875 -10.46875 3.6875q-7.765625 0 -12.484375 -5.078125q-4.71875 -5.078125 -4.71875 -14.5625q0 -6.140625 2.03125 -10.734375q2.03125 -4.59375 6.171875 -6.890625q4.15625 -2.296875 9.046875 -2.296875q6.15625 0 10.078125 3.125q3.921875 3.109375 5.03125 8.84375l-6.234375 0.96875q-0.890625 -3.8125 -3.15625 -5.734375q-2.265625 -1.9375 -5.46875 -1.9375q-4.859375 0 -7.890625 3.484375q-3.015625 3.46875 -3.015625 10.984375q0 7.640625 2.921875 11.09375q2.921875 3.453125 7.625 3.453125q3.78125 0 6.3125 -2.3125q2.53125 -2.3125 3.203125 -7.125zm11.9921875 13.859375l0 -52.25l6.421875 0l0 29.796875l15.1874695 -15.40625l8.296875 0l-14.4687195 14.046875l15.9374695 23.8125l-7.921875 0l-12.4999695 -19.359375l-4.53125 4.359375l0 15.0l-6.421875 0zm62.539032 -12.1875l6.640625 0.8125q-1.578125 5.8125 -5.828125 9.03125q-4.234375 3.203125 -10.828125 3.203125q-8.296875 0 -13.171875 -5.109375q-4.859375 -5.125 -4.859375 -14.359375q0 -9.546875 4.921875 -14.8125q4.921875 -5.28125 12.765625 -5.28125q7.59375 0 12.390625 5.171875q4.8125 5.15625 4.8125 14.53125q0 0.578125 -0.03125 1.71875l-28.234375 0q0.359375 6.234375 3.53125 9.546875q3.171875 3.3125 7.921875 3.3125q3.53125 0 6.015625 -1.84375q2.5 -1.859375 3.953125 -5.921875zm-21.0625 -10.375l21.140625 0q-0.421875 -4.78125 -2.421875 -7.171875q-3.0625 -3.703125 -7.953125 -3.703125q-4.421875 0 -7.4375 2.96875q-3.0 2.953125 -3.328125 7.90625zm49.95349 16.828125l0.921875 5.65625q-2.71875 0.578125 -4.84375 0.578125q-3.5 0 -5.421875 -1.109375q-1.921875 -1.109375 -2.71875 -2.90625q-0.78125 -1.796875 -0.78125 -7.5625l0 -21.78125l-4.703125 0l0 -5.0l4.703125 0l0 -9.375l6.390625 -3.84375l0 13.21875l6.453125 0l0 5.0l-6.453125 0l0 22.125q0 2.75 0.328125 3.53125q0.34375 0.78125 1.109375 1.25q0.765625 0.46875 2.1875 0.46875q1.078125 0 2.828125 -0.25z" fill-rule="nonzero"></path><path fill="#000000" fill-opacity="0.0" d="m14.283464 174.36l0 0c0 -11.518494 9.337576 -20.856064 20.856062 -20.856064l728.5556 0c5.531372 0 10.836182 2.1973267 14.747437 6.108597c3.911316 3.9112701 6.1086426 9.216095 6.1086426 14.747467l0 83.42174c0 11.518494 -9.337585 20.856049 -20.85608 20.856049l-728.5556 0c-11.518486 0 -20.856062 -9.337555 -20.856062 -20.856049z" fill-rule="evenodd"></path><path stroke="#000000" stroke-width="8.0" stroke-linejoin="round" stroke-linecap="butt" d="m14.283464 174.36l0 0c0 -11.518494 9.337576 -20.856064 20.856062 -20.856064l728.5556 0c5.531372 0 10.836182 2.1973267 14.747437 6.108597c3.911316 3.9112701 6.1086426 9.216095 6.1086426 14.747467l0 83.42174c0 11.518494 -9.337585 20.856049 -20.85608 20.856049l-728.5556 0c-11.518486 0 -20.856062 -9.337555 -20.856062 -20.856049z" fill-rule="evenodd"></path><path fill="#000000" d="m207.02559 225.68962l6.515625 -0.578125q0.46875 3.921875 2.15625 6.4375q1.703125 2.515625 5.265625 4.0625q3.5625 1.546875 8.015625 1.546875q3.953125 0 6.984375 -1.171875q3.03125 -1.171875 4.515625 -3.21875q1.484375 -2.0625 1.484375 -4.484375q0 -2.453125 -1.4375 -4.28125q-1.421875 -1.84375 -4.703125 -3.09375q-2.09375 -0.828125 -9.296875 -2.546875q-7.203125 -1.734375 -10.09375 -3.265625q-3.734375 -1.953125 -5.578125 -4.859375q-1.828125 -2.90625 -1.828125 -6.515625q0 -3.953125 2.234375 -7.390625q2.25 -3.4375 6.5625 -5.21875q4.3125 -1.78125 9.59375 -1.78125q5.8125 0 10.25 1.875q4.4375 1.859375 6.8125 5.5q2.390625 3.640625 2.578125 8.234375l-6.640625 0.5q-0.53125 -4.953125 -3.609375 -7.484375q-3.078125 -2.53125 -9.109375 -2.53125q-6.265625 0 -9.140625 2.296875q-2.875 2.296875 -2.875 5.546875q0 2.8125 2.03125 4.625q2.0 1.828125 10.421875 3.734375q8.4375 1.90625 11.578125 3.328125q4.5625 2.09375 6.734375 5.328125q2.171875 3.21875 2.171875 7.4375q0 4.15625 -2.390625 7.859375q-2.390625 3.6875 -6.859375 5.734375q-4.46875 2.046875 -10.0625 2.046875q-7.09375 0 -11.890625 -2.0625q-4.796875 -2.078125 -7.53125 -6.21875q-2.71875 -4.15625 -2.859375 -9.390625zm75.25304 16.78125l0 -5.5625q-4.421875 6.421875 -12.015625 6.421875q-3.34375 0 -6.25 -1.28125q-2.90625 -1.296875 -4.328125 -3.234375q-1.40625 -1.9375 -1.96875 -4.75q-0.390625 -1.890625 -0.390625 -6.0l0 -23.453125l6.40625 0l0 21.0q0 5.03125 0.40625 6.765625q0.59375 2.53125 2.546875 3.984375q1.96875 1.4375 4.859375 1.4375q2.890625 0 5.421875 -1.46875q2.53125 -1.484375 3.578125 -4.03125q1.046875 -2.546875 1.046875 -7.40625l0 -20.28125l6.421875 0l0 37.859375l-5.734375 0zm21.890991 0l-5.953125 0l0 -52.25l6.40625 0l0 18.640625q4.0625 -5.09375 10.375 -5.09375q3.5 0 6.609375 1.40625q3.125 1.40625 5.140625 3.953125q2.015625 2.546875 3.15625 6.15625q1.140625 3.59375 1.140625 7.6875q0 9.734375 -4.8125 15.046875q-4.8125 5.3125 -11.546875 5.3125q-6.703125 0 -10.515625 -5.59375l0 4.734375zm-0.078125 -19.21875q0 6.8125 1.859375 9.84375q3.03125 4.953125 8.1875 4.953125q4.21875 0 7.28125 -3.65625q3.0625 -3.65625 3.0625 -10.890625q0 -7.40625 -2.9375 -10.9375q-2.9375 -3.53125 -7.109375 -3.53125q-4.21875 0 -7.28125 3.65625q-3.0625 3.65625 -3.0625 10.5625zm34.937866 33.718735l0 -52.35936l5.84375 0l0 4.921875q2.0625 -2.890625 4.65625 -4.328125q2.609375 -1.4375 6.328125 -1.4375q4.84375 0 8.546875 2.5q3.703125 2.484375 5.59375 7.03125q1.890625 4.546875 1.890625 9.953125q0 5.8125 -2.09375 10.46875q-2.078125 4.65625 -6.046875 7.140625q-3.96875 2.46875 -8.359375 2.46875q-3.203125 0 -5.75 -1.359375q-2.546875 -1.359375 -4.1875 -3.421875l0 18.42186l-6.421875 0zm5.8125 -33.218735q0 7.3125 2.953125 10.8125q2.96875 3.484375 7.171875 3.484375q4.265625 0 7.3125 -3.609375q3.0625 -3.625 3.0625 -11.21875q0 -7.234375 -2.984375 -10.828125q-2.96875 -3.609375 -7.109375 -3.609375q-4.09375 0 -7.25 3.84375q-3.15625 3.828125 -3.15625 11.125zm34.89099 18.71875l0 -37.859375l5.78125 0l0 5.75q2.203125 -4.03125 4.078125 -5.3125q1.875 -1.28125 4.125 -1.28125q3.234375 0 6.59375 2.0625l-2.21875 5.953125q-2.34375 -1.390625 -4.703125 -1.390625q-2.09375 0 -3.78125 1.265625q-1.671875 1.265625 -2.390625 3.515625q-1.0625 3.421875 -1.0625 7.484375l0 19.8125l-6.421875 0zm22.106354 -18.921875q0 -10.515625 5.84375 -15.578125q4.890625 -4.203125 11.90625 -4.203125q7.8125 0 12.765625 5.109375q4.953125 5.109375 4.953125 14.125q0 7.3125 -2.203125 11.5q-2.1875 4.1875 -6.375 6.515625q-4.1875 2.3125 -9.140625 2.3125q-7.953125 0 -12.859375 -5.09375q-4.890625 -5.109375 -4.890625 -14.6875zm6.59375 0q0 7.265625 3.171875 10.890625q3.171875 3.609375 7.984375 3.609375q4.78125 0 7.953125 -3.625q3.171875 -3.640625 3.171875 -11.09375q0 -7.015625 -3.1875 -10.640625q-3.1875 -3.625 -7.9375 -3.625q-4.8125 0 -7.984375 3.609375q-3.171875 3.59375 -3.171875 10.875zm50.594116 13.1875l0.921875 5.65625q-2.71875 0.578125 -4.84375 0.578125q-3.5 0 -5.421875 -1.109375q-1.921875 -1.109375 -2.71875 -2.90625q-0.78125 -1.796875 -0.78125 -7.5625l0 -21.78125l-4.703125 0l0 -5.0l4.703125 0l0 -9.375l6.390625 -3.84375l0 13.21875l6.453125 0l0 5.0l-6.453125 0l0 22.125q0 2.75 0.328125 3.53125q0.34375 0.78125 1.109375 1.25q0.765625 0.46875 2.1875 0.46875q1.078125 0 2.828125 -0.25zm3.9666748 -13.1875q0 -10.515625 5.84375 -15.578125q4.890625 -4.203125 11.90625 -4.203125q7.8125 0 12.765625 5.109375q4.953125 5.109375 4.953125 14.125q0 7.3125 -2.203125 11.5q-2.1875 4.1875 -6.375 6.515625q-4.1875 2.3125 -9.140625 2.3125q-7.953125 0 -12.859375 -5.09375q-4.890625 -5.109375 -4.890625 -14.6875zm6.59375 0q0 7.265625 3.171875 10.890625q3.171875 3.609375 7.984375 3.609375q4.78125 0 7.953125 -3.625q3.171875 -3.640625 3.171875 -11.09375q0 -7.015625 -3.1875 -10.640625q-3.1875 -3.625 -7.9375 -3.625q-4.8125 0 -7.984375 3.609375q-3.171875 3.59375 -3.171875 10.875zm61.281586 5.0625l6.3125 0.8125q-1.03125 6.53125 -5.296875 10.21875q-4.265625 3.6875 -10.46875 3.6875q-7.765625 0 -12.4843445 -5.078125q-4.71875 -5.078125 -4.71875 -14.5625q0 -6.140625 2.03125 -10.734375q2.03125 -4.59375 6.1718445 -6.890625q4.15625 -2.296875 9.046875 -2.296875q6.15625 0 10.078125 3.125q3.921875 3.109375 5.03125 8.84375l-6.234375 0.96875q-0.890625 -3.8125 -3.15625 -5.734375q-2.265625 -1.9375 -5.46875 -1.9375q-4.859375 0 -7.890625 3.484375q-3.0155945 3.46875 -3.0155945 10.984375q0 7.640625 2.9218445 11.09375q2.921875 3.453125 7.625 3.453125q3.78125 0 6.3125 -2.3125q2.53125 -2.3125 3.203125 -7.125zm9.5703125 -5.0625q0 -10.515625 5.84375 -15.578125q4.890625 -4.203125 11.90625 -4.203125q7.8125 0 12.765625 5.109375q4.953125 5.109375 4.953125 14.125q0 7.3125 -2.203125 11.5q-2.1875 4.1875 -6.375 6.515625q-4.1875 2.3125 -9.140625 2.3125q-7.953125 0 -12.859375 -5.09375q-4.890625 -5.109375 -4.890625 -14.6875zm6.59375 0q0 7.265625 3.171875 10.890625q3.171875 3.609375 7.984375 3.609375q4.78125 0 7.953125 -3.625q3.171875 -3.640625 3.171875 -11.09375q0 -7.015625 -3.1875 -10.640625q-3.1875 -3.625 -7.9375 -3.625q-4.8125 0 -7.984375 3.609375q-3.171875 3.59375 -3.171875 10.875zm36.437866 18.921875l0 -52.25l6.40625 0l0 52.25l-6.40625 0z" fill-rule="nonzero"></path><path fill="#000000" fill-opacity="0.0" d="m190.71327 653.72766l417.41736 0l0 33.007874l-417.41736 0z" fill-rule="evenodd"></path><path fill="#000000" d="m373.34772 739.5277l0 -8.015625l8.015625 0l0 8.015625l-8.015625 0zm22.226562 0l0 -8.015625l8.015625 0l0 8.015625l-8.015625 0zm22.226562 0l0 -8.015625l8.015625 0l0 8.015625l-8.015625 0z" fill-rule="nonzero"></path><path fill="#000000" fill-opacity="0.0" d="m14.288713 34.241886l0 0c0 -11.518484 9.337576 -20.85606 20.856062 -20.85606l728.5556 0c5.531372 0 10.836182 2.1973286 14.747437 6.1085978c3.911316 3.9112701 6.1086426 9.216091 6.1086426 14.747461l0 83.42174c0 11.518486 -9.337585 20.856056 -20.85608 20.856056l-728.5556 0c-11.518486 0 -20.856062 -9.33757 -20.856062 -20.856056z" fill-rule="evenodd"></path><path stroke="#000000" stroke-width="8.0" stroke-linejoin="round" stroke-linecap="butt" d="m14.288713 34.241886l0 0c0 -11.518484 9.337576 -20.85606 20.856062 -20.85606l728.5556 0c5.531372 0 10.836182 2.1973286 14.747437 6.1085978c3.911316 3.9112701 6.1086426 9.216091 6.1086426 14.747461l0 83.42174c0 11.518486 -9.337585 20.856056 -20.85608 20.856056l-728.5556 0c-11.518486 0 -20.856062 -9.33757 -20.856062 -20.856056z" fill-rule="evenodd"></path><path fill="#000000" d="m219.94928 102.35276l20.078125 -52.250004l7.4375 0l21.390625 52.250004l-7.875 0l-6.09375 -15.828125l-21.859375 0l-5.734375 15.828125l-7.34375 0zm15.078125 -21.453125l17.71875 0l-5.453125 -14.484375q-2.5 -6.593754 -3.703125 -10.828129q-1.0 5.03125 -2.828125 9.984379l-5.734375 15.328125zm38.75302 35.953125l0 -52.359375l5.84375 0l0 4.921875q2.0625 -2.890625 4.65625 -4.328125q2.609375 -1.4375038 6.328125 -1.4375038q4.84375 0 8.546875 2.5000038q3.703125 2.484375 5.59375 7.03125q1.890625 4.546875 1.890625 9.953125q0 5.8125 -2.09375 10.46875q-2.078125 4.65625 -6.046875 7.140625q-3.96875 2.46875 -8.359375 2.46875q-3.203125 0 -5.75 -1.359375q-2.546875 -1.359375 -4.1875 -3.421875l0 18.421875l-6.421875 0zm5.8125 -33.21875q0 7.3125 2.953125 10.8125q2.96875 3.484375 7.171875 3.484375q4.265625 0 7.3125 -3.609375q3.0625 -3.625 3.0625 -11.21875q0 -7.234375 -2.984375 -10.828125q-2.96875 -3.609375 -7.109375 -3.609375q-4.09375 0 -7.25 3.84375q-3.15625 3.828125 -3.15625 11.125zm34.969116 33.21875l0 -52.359375l5.84375 0l0 4.921875q2.0625 -2.890625 4.65625 -4.328125q2.609375 -1.4375038 6.328125 -1.4375038q4.84375 0 8.546875 2.5000038q3.703125 2.484375 5.59375 7.03125q1.890625 4.546875 1.890625 9.953125q0 5.8125 -2.09375 10.46875q-2.078125 4.65625 -6.046875 7.140625q-3.96875 2.46875 -8.359375 2.46875q-3.203125 0 -5.75 -1.359375q-2.546875 -1.359375 -4.1875 -3.421875l0 18.421875l-6.421875 0zm5.8125 -33.21875q0 7.3125 2.953125 10.8125q2.96875 3.484375 7.171875 3.484375q4.265625 0 7.3125 -3.609375q3.0625 -3.625 3.0625 -11.21875q0 -7.234375 -2.984375 -10.828125q-2.96875 -3.609375 -7.109375 -3.609375q-4.09375 0 -7.25 3.84375q-3.15625 3.828125 -3.15625 11.125zm34.82849 18.71875l0 -52.250004l6.40625 0l0 52.250004l-6.40625 0zm16.463074 -44.875004l0 -7.375l6.421875 0l0 7.375l-6.421875 0zm0 44.875004l0 -37.859375l6.421875 0l0 37.859375l-6.421875 0zm40.963013 -13.859375l6.3125 0.8125q-1.03125 6.53125 -5.296875 10.21875q-4.265625 3.6875 -10.46875 3.6875q-7.765625 0 -12.484375 -5.078125q-4.71875 -5.078125 -4.71875 -14.5625q0 -6.140625 2.03125 -10.734375q2.03125 -4.59375 6.171875 -6.890625q4.15625 -2.2968788 9.046875 -2.2968788q6.15625 0 10.078125 3.1250038q3.921875 3.109375 5.03125 8.84375l-6.234375 0.96875q-0.890625 -3.8125 -3.15625 -5.734375q-2.265625 -1.9375 -5.46875 -1.9375q-4.859375 0 -7.890625 3.484375q-3.015625 3.46875 -3.015625 10.984375q0 7.640625 2.921875 11.09375q2.921875 3.453125 7.625 3.453125q3.78125 0 6.3125 -2.3125q2.53125 -2.3125 3.203125 -7.125zm36.664062 9.1875q-3.5625 3.03125 -6.859375 4.28125q-3.296875 1.25 -7.078125 1.25q-6.234375 0 -9.59375 -3.046875q-3.34375 -3.046875 -3.34375 -7.796875q0 -2.78125 1.265625 -5.078125q1.265625 -2.296875 3.3125 -3.6875q2.046875 -1.390625 4.609375 -2.109375q1.890625 -0.484375 5.703125 -0.953125q7.78125 -0.921875 11.453125 -2.21875q0.03125 -1.3125 0.03125 -1.671875q0 -3.921875 -1.8125 -5.515625q-2.46875 -2.1875 -7.3125 -2.1875q-4.53125 0 -6.6875 1.59375q-2.15625 1.578125 -3.1875 5.609375l-6.265625 -0.84375q0.84375 -4.03125 2.796875 -6.5q1.96875 -2.484375 5.671875 -3.8125q3.71875 -1.3437538 8.59375 -1.3437538q4.859375 0 7.875 1.1406288q3.03125 1.140625 4.453125 2.875q1.4375 1.71875 2.0 4.359375q0.328125 1.640625 0.328125 5.90625l0 8.5625q0 8.9375 0.40625 11.3125q0.40625 2.375 1.625 4.546875l-6.703125 0q-1.0 -2.0 -1.28125 -4.671875zm-0.53125 -14.328125q-3.5 1.421875 -10.484375 2.421875q-3.953125 0.578125 -5.59375 1.296875q-1.640625 0.703125 -2.53125 2.078125q-0.890625 1.375 -0.890625 3.046875q0 2.5625 1.9375 4.28125q1.9375 1.703125 5.6875 1.703125q3.703125 0 6.59375 -1.625q2.890625 -1.625 4.25 -4.4375q1.03125 -2.171875 1.03125 -6.40625l0 -2.359375zm30.625366 13.265625l0.921875 5.65625q-2.71875 0.578125 -4.84375 0.578125q-3.5 0 -5.421875 -1.109375q-1.921875 -1.109375 -2.71875 -2.90625q-0.78125 -1.796875 -0.78125 -7.5625l0 -21.78125l-4.703125 0l0 -5.0l4.703125 0l0 -9.375004l6.390625 -3.84375l0 13.218754l6.453125 0l0 5.0l-6.453125 0l0 22.125q0 2.75 0.328125 3.53125q0.34375 0.78125 1.109375 1.25q0.765625 0.46875 2.1875 0.46875q1.078125 0 2.828125 -0.25zm6.38855 -39.14063l0 -7.375l6.421875 0l0 7.375l-6.421875 0zm0 44.875004l0 -37.859375l6.421875 0l0 37.859375l-6.421875 0zm13.869293 -18.921875q0 -10.515625 5.84375 -15.578125q4.890625 -4.203129 11.90625 -4.203129q7.8125 0 12.765625 5.109379q4.953125 5.109375 4.953125 14.125q0 7.3125 -2.203125 11.5q-2.1875 4.1875 -6.375 6.515625q-4.1875 2.3125 -9.140625 2.3125q-7.953125 0 -12.859375 -5.09375q-4.890625 -5.109375 -4.890625 -14.6875zm6.59375 0q0 7.265625 3.171875 10.890625q3.171875 3.609375 7.984375 3.609375q4.78125 0 7.953125 -3.625q3.171875 -3.640625 3.171875 -11.09375q0 -7.015625 -3.1875 -10.640625q-3.1875 -3.625 -7.9375 -3.625q-4.8125 0 -7.984375 3.609375q-3.171875 3.59375 -3.171875 10.875zm36.57849 18.921875l0 -37.859375l5.78125 0l0 5.390625q4.15625 -6.234379 12.046875 -6.234379q3.421875 0 6.28125 1.2343788q2.875 1.21875 4.296875 3.21875q1.421875 1.984375 2.0 4.734375q0.359375 1.78125 0.359375 6.234375l0 23.28125l-6.421875 0l0 -23.03125q0 -3.921875 -0.75 -5.859375q-0.75 -1.9375 -2.65625 -3.09375q-1.90625 -1.171875 -4.46875 -1.171875q-4.09375 0 -7.078125 2.609375q-2.96875 2.59375 -2.96875 9.875l0 20.671875l-6.421875 0z" fill-rule="nonzero"></path></g></svg>

