<?xml version="1.0" standalone="yes"?>

<svg version="1.1" viewBox="0.0 0.0 960.0 720.0" fill="none" stroke="none" stroke-linecap="square" stroke-miterlimit="10" xmlns="http://www.w3.org/2000/svg" xmlns:xlink="http://www.w3.org/1999/xlink"><clipPath id="p.0"><path d="m0 0l960.0 0l0 720.0l-960.0 0l0 -720.0z" clip-rule="nonzero"></path></clipPath><g clip-path="url(#p.0)"><path fill="#000000" fill-opacity="0.0" d="m0 0l960.0 0l0 720.0l-960.0 0z" fill-rule="evenodd"></path><path fill="#d9d9d9" d="m363.0501 134.20721l200.64569 0l0 409.81104l-200.64569 0z" fill-rule="evenodd"></path><path fill="#adadad" d="m563.6958 134.20721l66.8819 -66.8819l0 409.81104l-66.8819 66.8819z" fill-rule="evenodd"></path><path fill="#e0e0e0" d="m363.0501 134.20721l66.8819 -66.8819l200.64569 0l-66.8819 66.8819z" fill-rule="evenodd"></path><path fill="#000000" fill-opacity="0.0" d="m363.0501 134.20721l66.8819 -66.8819l200.64569 0l0 409.81104l-66.8819 66.8819l-200.64569 0zm0 0l200.64569 0l66.8819 -66.8819m-66.8819 66.8819l0 409.81104" fill-rule="evenodd"></path><path stroke="#000000" stroke-width="4.0" stroke-linejoin="round" stroke-linecap="butt" d="m363.0501 134.20721l66.8819 -66.8819l200.64569 0l0 409.81104l-66.8819 66.8819l-200.64569 0zm0 0l200.64569 0l66.8819 -66.8819m-66.8819 66.8819l0 409.81104" fill-rule="evenodd"></path><path fill="#000000" fill-opacity="0.0" d="m362.34146 340.05762l201.35434 -0.94488525" fill-rule="evenodd"></path><path stroke="#000000" stroke-width="4.0" stroke-linejoin="round" stroke-linecap="butt" d="m362.34146 340.05762l201.35434 -0.94488525" fill-rule="evenodd"></path><path fill="#000000" fill-opacity="0.0" d="m563.6958 339.11273l66.897644 -66.86615" fill-rule="evenodd"></path><path stroke="#000000" stroke-width="4.0" stroke-linejoin="round" stroke-linecap="butt" d="m563.6958 339.11273l66.897644 -66.86615" fill-rule="evenodd"></path><path fill="#000000" fill-opacity="0.0" d="m406.911 555.2045l136.59845 0l0 31.212585l-136.59845 0z" fill-rule="evenodd"></path><path fill="#000000" d="m418.25476 594.92456l0 -22.90625l8.59375 0q2.625 0 4.203125 0.703125q1.59375 0.6875 2.484375 2.140625q0.90625 1.4375 0.90625 3.015625q0 1.46875 -0.796875 2.765625q-0.796875 1.296875 -2.40625 2.09375q2.078125 0.609375 3.1875 2.078125q1.125 1.46875 1.125 3.46875q0 1.609375 -0.6875 3.0q-0.671875 1.375 -1.671875 2.125q-1.0 0.75 -2.515625 1.140625q-1.5 0.375 -3.6875 0.375l-8.734375 0zm3.03125 -13.28125l4.953125 0q2.015625 0 2.890625 -0.265625q1.15625 -0.34375 1.734375 -1.140625q0.59375 -0.796875 0.59375 -2.0q0 -1.140625 -0.546875 -2.0q-0.546875 -0.875 -1.5625 -1.1875q-1.015625 -0.328125 -3.484375 -0.328125l-4.578125 0l0 6.921875zm0 10.578125l5.703125 0q1.46875 0 2.0625 -0.109375q1.046875 -0.1875 1.75 -0.625q0.703125 -0.4375 1.15625 -1.265625q0.453125 -0.84375 0.453125 -1.9375q0 -1.28125 -0.65625 -2.21875q-0.65625 -0.953125 -1.828125 -1.328125q-1.15625 -0.390625 -3.34375 -0.390625l-5.296875 0l0 7.875zm18.046875 2.703125l0 -16.59375l2.53125 0l0 2.515625q0.96875 -1.765625 1.78125 -2.328125q0.828125 -0.5625 1.8125 -0.5625q1.421875 0 2.890625 0.90625l-0.96875 2.609375q-1.03125 -0.609375 -2.0625 -0.609375q-0.921875 0 -1.65625 0.5625q-0.734375 0.546875 -1.046875 1.53125q-0.46875 1.5 -0.46875 3.28125l0 8.6875l-2.8125 0zm9.640625 -8.296875q0 -4.609375 2.5625 -6.828125q2.140625 -1.84375 5.21875 -1.84375q3.421875 0 5.59375 2.25q2.171875 2.234375 2.171875 6.1875q0 3.203125 -0.96875 5.046875q-0.953125 1.828125 -2.796875 2.84375q-1.828125 1.015625 -4.0 1.015625q-3.484375 0 -5.640625 -2.234375q-2.140625 -2.234375 -2.140625 -6.4375zm2.890625 0q0 3.1875 1.390625 4.78125q1.390625 1.578125 3.5 1.578125q2.09375 0 3.484375 -1.59375q1.390625 -1.59375 1.390625 -4.859375q0 -3.078125 -1.40625 -4.65625q-1.390625 -1.59375 -3.46875 -1.59375q-2.109375 0 -3.5 1.578125q-1.390625 1.578125 -1.390625 4.765625zm15.96875 8.296875l0 -22.90625l2.8125 0l0 13.0625l6.65625 -6.75l3.640625 0l-6.34375 6.15625l6.984375 10.4375l-3.46875 0l-5.484375 -8.484375l-1.984375 1.90625l0 6.578125l-2.8125 0zm27.34375 -5.34375l2.90625 0.359375q-0.6875 2.546875 -2.546875 3.953125q-1.859375 1.40625 -4.75 1.40625q-3.640625 0 -5.78125 -2.234375q-2.125 -2.25 -2.125 -6.296875q0 -4.1875 2.15625 -6.5q2.15625 -2.3125 5.59375 -2.3125q3.328125 0 5.4375 2.265625q2.109375 2.265625 2.109375 6.375q0 0.25 -0.015625 0.75l-12.375 0q0.15625 2.734375 1.546875 4.1875q1.390625 1.453125 3.46875 1.453125q1.546875 0 2.640625 -0.8125q1.09375 -0.8125 1.734375 -2.59375zm-9.234375 -4.546875l9.265625 0q-0.1875 -2.09375 -1.0625 -3.140625q-1.34375 -1.625 -3.484375 -1.625q-1.9375 0 -3.265625 1.296875q-1.3125 1.296875 -1.453125 3.46875zm15.640625 9.890625l0 -16.59375l2.53125 0l0 2.515625q0.96875 -1.765625 1.78125 -2.328125q0.828125 -0.5625 1.8125 -0.5625q1.421875 0 2.890625 0.90625l-0.96875 2.609375q-1.03125 -0.609375 -2.0625 -0.609375q-0.921875 0 -1.65625 0.5625q-0.734375 0.546875 -1.046875 1.53125q-0.46875 1.5 -0.46875 3.28125l0 8.6875l-2.8125 0z" fill-rule="nonzero"></path><path fill="#000000" fill-opacity="0.0" d="m362.32492 450.32367l201.35434 -0.94488525" fill-rule="evenodd"></path><path stroke="#000000" stroke-width="4.0" stroke-linejoin="round" stroke-linecap="butt" d="m362.32492 450.32367l201.35434 -0.94488525" fill-rule="evenodd"></path><path fill="#000000" fill-opacity="0.0" d="m563.69336 449.36777l66.897644 -75.74805" fill-rule="evenodd"></path><path stroke="#000000" stroke-width="4.0" stroke-linejoin="round" stroke-linecap="butt" d="m563.69336 449.36777l66.897644 -75.74805" fill-rule="evenodd"></path><path fill="#000000" fill-opacity="0.0" d="m362.32492 238.64911l201.35434 -0.94488525" fill-rule="evenodd"></path><path stroke="#000000" stroke-width="4.0" stroke-linejoin="round" stroke-linecap="butt" d="m362.32492 238.64911l201.35434 -0.94488525" fill-rule="evenodd"></path><path fill="#000000" fill-opacity="0.0" d="m563.69336 237.69319l66.897644 -75.74803" fill-rule="evenodd"></path><path stroke="#000000" stroke-width="4.0" stroke-linejoin="round" stroke-linecap="butt" d="m563.69336 237.69319l66.897644 -75.74803" fill-rule="evenodd"></path><path fill="#cccccc" d="m12.13601 345.76492l98.104965 0l0 52.408997l-98.104965 0z" fill-rule="evenodd"></path><path fill="#a3a3a3" d="m110.240974 345.76492l17.469673 -17.469696l0 52.409027l-17.469673 17.469666z" fill-rule="evenodd"></path><path fill="#d6d6d6" d="m12.13601 345.76492l17.469673 -17.469696l98.104965 0l-17.469673 17.469696z" fill-rule="evenodd"></path><path fill="#000000" fill-opacity="0.0" d="m12.13601 345.76492l17.469673 -17.469696l98.104965 0l0 52.409027l-17.469673 17.469666l-98.104965 0zm0 0l98.104965 0l17.469673 -17.469696m-17.469673 17.469696l0 52.408997" fill-rule="evenodd"></path><path stroke="#000000" stroke-width="4.0" stroke-linejoin="round" stroke-linecap="butt" d="m12.13601 345.76492l17.469673 -17.469696l98.104965 0l0 52.409027l-17.469673 17.469666l-98.104965 0zm0 0l98.104965 0l17.469673 -17.469696m-17.469673 17.469696l0 52.408997" fill-rule="evenodd"></path><path fill="#d9d9d9" d="m29.879583 287.944l9.546434 0l0 47.848175l-9.546434 0z" fill-rule="evenodd"></path><path fill="#adadad" d="m39.426018 287.944l3.1821442 -3.1821594l0 47.848175l-3.1821442 3.1821594z" fill-rule="evenodd"></path><path fill="#e0e0e0" d="m29.879583 287.944l3.182146 -3.1821594l9.5464325 0l-3.1821442 3.1821594z" fill-rule="evenodd"></path><path fill="#000000" fill-opacity="0.0" d="m29.879583 287.944l3.182146 -3.1821594l9.5464325 0l0 47.848175l-3.1821442 3.1821594l-9.546434 0zm0 0l9.546434 0l3.1821442 -3.1821594m-3.1821442 3.1821594l0 47.848175" fill-rule="evenodd"></path><path stroke="#000000" stroke-width="3.0" stroke-linejoin="round" stroke-linecap="butt" d="m29.879583 287.944l3.182146 -3.1821594l9.5464325 0l0 47.848175l-3.1821442 3.1821594l-9.546434 0zm0 0l9.546434 0l3.1821442 -3.1821594m-3.1821442 3.1821594l0 47.848175" fill-rule="evenodd"></path><path fill="#000000" fill-opacity="0.0" d="m35.159885 235.36124l0 0c22.808067 0 41.297657 10.136246 41.297657 22.639954l-41.297657 0z" fill-rule="evenodd"></path><path fill="#000000" fill-opacity="0.0" d="m35.159885 235.36124l0 0c22.808067 0 41.297657 10.136246 41.297657 22.639954" fill-rule="evenodd"></path><path stroke="#000000" stroke-width="4.0" stroke-linejoin="round" stroke-linecap="butt" d="m35.159885 235.36124l0 0c22.808067 0 41.297657 10.136246 41.297657 22.639954" fill-rule="evenodd"></path><path fill="#000000" fill-opacity="0.0" d="m35.159885 221.9019l0 0c30.636189 0 55.47172 13.149231 55.47172 29.369614l-55.47172 0z" fill-rule="evenodd"></path><path fill="#000000" fill-opacity="0.0" d="m35.159885 221.9019l0 0c30.636189 0 55.47172 13.149231 55.47172 29.369614" fill-rule="evenodd"></path><path stroke="#000000" stroke-width="4.0" stroke-linejoin="round" stroke-linecap="butt" d="m35.159885 221.9019l0 0c30.636189 0 55.47172 13.149231 55.47172 29.369614" fill-rule="evenodd"></path><path fill="#000000" fill-opacity="0.0" d="m36.246666 210.76888l0 0c35.395615 0 64.08943 15.641434 64.08943 34.936127l-64.08943 0z" fill-rule="evenodd"></path><path fill="#000000" fill-opacity="0.0" d="m36.246666 210.76888l0 0c35.395615 0 64.08943 15.641434 64.08943 34.936127" fill-rule="evenodd"></path><path stroke="#000000" stroke-width="4.0" stroke-linejoin="round" stroke-linecap="butt" d="m36.246666 210.76888l0 0c35.395615 0 64.08943 15.641434 64.08943 34.936127" fill-rule="evenodd"></path><path fill="#000000" fill-opacity="0.0" d="m36.246677 247.60896l0 0c16.08738 0 29.128773 6.2243347 29.128773 13.902451l-29.128773 0z" fill-rule="evenodd"></path><path fill="#000000" fill-opacity="0.0" d="m36.246677 247.60896l0 0c16.08738 0 29.128773 6.2243347 29.128773 13.902451" fill-rule="evenodd"></path><path stroke="#000000" stroke-width="4.0" stroke-linejoin="round" stroke-linecap="butt" d="m36.246677 247.60896l0 0c16.08738 0 29.128773 6.2243347 29.128773 13.902451" fill-rule="evenodd"></path><path fill="#000000" fill-opacity="0.0" d="m10.285282 405.0639l172.91818 0l0 29.632904l-172.91818 0z" fill-rule="evenodd"></path><path fill="#000000" d="m38.097782 436.75266l3.03125 0.765625q-0.953125 3.734375 -3.4375 5.703125q-2.46875 1.953125 -6.046875 1.953125q-3.703125 0 -6.03125 -1.5q-2.3125 -1.515625 -3.53125 -4.375q-1.203125 -2.859375 -1.203125 -6.140625q0 -3.578125 1.359375 -6.234375q1.375 -2.671875 3.890625 -4.046875q2.53125 -1.390625 5.5625 -1.390625q3.4375 0 5.78125 1.75q2.34375 1.75 3.265625 4.921875l-2.984375 0.703125q-0.796875 -2.5 -2.3125 -3.640625q-1.515625 -1.140625 -3.8125 -1.140625q-2.640625 0 -4.421875 1.265625q-1.765625 1.265625 -2.484375 3.40625q-0.71875 2.125 -0.71875 4.390625q0 2.921875 0.84375 5.109375q0.859375 2.171875 2.65625 3.25q1.796875 1.078125 3.890625 1.078125q2.546875 0 4.3125 -1.46875q1.765625 -1.46875 2.390625 -4.359375zm6.34375 8.03125l0 -22.90625l2.8125 0l0 22.90625l-2.8125 0zm7.1875 -19.671875l0 -3.234375l2.8125 0l0 3.234375l-2.8125 0zm0 19.671875l0 -16.59375l2.8125 0l0 16.59375l-2.8125 0zm18.453121 -5.34375l2.90625 0.359375q-0.6875 2.546875 -2.546875 3.953125q-1.859375 1.40625 -4.75 1.40625q-3.6406212 0 -5.781246 -2.234375q-2.125 -2.25 -2.125 -6.296875q0 -4.1875 2.15625 -6.5q2.15625 -2.3125 5.593746 -2.3125q3.328125 0 5.4375 2.265625q2.109375 2.265625 2.109375 6.375q0 0.25 -0.015625 0.75l-12.374996 0q0.15625 2.734375 1.546875 4.1875q1.390625 1.453125 3.4687462 1.453125q1.546875 0 2.640625 -0.8125q1.09375 -0.8125 1.734375 -2.59375zm-9.234371 -4.546875l9.265621 0q-0.1875 -2.09375 -1.0625 -3.140625q-1.34375 -1.625 -3.484375 -1.625q-1.9374962 0 -3.2656212 1.296875q-1.3125 1.296875 -1.453125 3.46875zm15.671871 9.890625l0 -16.59375l2.53125 0l0 2.359375q1.828125 -2.734375 5.28125 -2.734375q1.5 0 2.75 0.546875q1.265625 0.53125 1.890625 1.40625q0.625 0.875 0.875 2.078125q0.15625 0.78125 0.15625 2.734375l0 10.203125l-2.8125 0l0 -10.09375q0 -1.71875 -0.328125 -2.5625q-0.328125 -0.859375 -1.171875 -1.359375q-0.828125 -0.515625 -1.953125 -0.515625q-1.796875 0 -3.109375 1.140625q-1.296875 1.140625 -1.296875 4.328125l0 9.0625l-2.8125 0zm23.9375 -2.515625l0.40625 2.484375q-1.1875 0.25 -2.125 0.25q-1.53125 0 -2.375 -0.484375q-0.84375 -0.484375 -1.1875 -1.265625q-0.34375 -0.796875 -0.34375 -3.328125l0 -9.546875l-2.0625 0l0 -2.1875l2.0625 0l0 -4.109375l2.796875 -1.6875l0 5.796875l2.828125 0l0 2.1875l-2.828125 0l0 9.703125q0 1.203125 0.140625 1.546875q0.15625 0.34375 0.484375 0.546875q0.34375 0.203125 0.96875 0.203125q0.46875 0 1.234375 -0.109375zm21.453125 2.515625l-2.8125 0l0 -17.921875q-1.015625 0.96875 -2.671875 1.9375q-1.640625 0.96875 -2.953125 1.453125l0 -2.71875q2.359375 -1.109375 4.125 -2.6875q1.765625 -1.578125 2.5 -3.0625l1.8125 0l0 23.0z" fill-rule="nonzero"></path><path fill="#000000" fill-opacity="0.0" d="m-159.1632 244.28719l370.66577 0l0 48.97145l-370.66577 0z" fill-rule="evenodd"></path><path fill="#000000" fill-opacity="0.0" d="m146.62465 291.74323l207.27559 -0.03149414l0 47.370087l-207.27559 0.03149414z" fill-rule="evenodd"></path><path fill="#000000" d="m158.0934 331.4615l0 -22.90625l8.640625 -0.0013122559q2.28125 -3.3569336E-4 3.484375 0.2182312q1.6875 0.28097534 2.828125 1.0776978q1.140625 0.7810669 1.828125 2.2028503q0.703125 1.4217529 0.703125 3.124878q0 2.921875 -1.859375 4.9533997q-1.859375 2.0159302 -6.71875 2.0166626l-5.875 8.8500977E-4l0 9.3125l-3.03125 4.5776367E-4zm3.03125 -12.016083l5.921875 -8.8500977E-4q2.9375 -4.5776367E-4 4.171875 -1.0943909q1.234375 -1.0939331 1.234375 -3.078308q0 -1.4375 -0.734375 -2.4530334q-0.71875 -1.0311279 -1.90625 -1.3590698q-0.765625 -0.20300293 -2.828125 -0.20269775l-5.859375 8.8500977E-4l0 8.1875zm28.828125 12.011261l0 -2.4375q-1.9375 2.8127747 -5.265625 2.8132935q-1.46875 2.1362305E-4 -2.75 -0.5621033q-1.265625 -0.5622864 -1.890625 -1.4059448q-0.609375 -0.85928345 -0.859375 -2.093628q-0.171875 -0.8280945 -0.171875 -2.6249695l0 -10.28125l2.8125 -4.272461E-4l0 9.203125q0 2.203125 0.171875 2.9687195q0.265625 1.1093445 1.125 1.7498474q0.859375 0.6248474 2.125 0.6246643q1.265625 -1.8310547E-4 2.375 -0.6409912q1.109375 -0.6564026 1.5625 -1.7658691q0.46875 -1.125061 0.46875 -3.250061l0 -8.890625l2.8125 -4.272461E-4l0 16.59375l-2.515625 3.9672852E-4zm9.515625 -0.0014648438l-2.609375 3.9672852E-4l0 -22.90625l2.8125 -4.272461E-4l0 8.171875q1.78125 -2.2346497 4.546875 -2.235077q1.53125 -2.1362305E-4 2.890625 0.62457275q1.375 0.6091614 2.25 1.7340393q0.890625 1.1092224 1.390625 2.6872864q0.5 1.5780334 0.5 3.3749084q0 4.265625 -2.109375 6.5940857q-2.109375 2.3284302 -5.0625 2.328888q-2.9375 4.5776367E-4 -4.609375 -2.452423l0 2.078125zm-0.03125 -8.421875q0 2.984375 0.8125 4.312378q1.328125 2.171692 3.59375 2.1713257q1.84375 -2.746582E-4 3.1875 -1.5942383q1.34375 -1.6095581 1.34375 -4.781433q0 -3.25 -1.296875 -4.796692q-1.28125 -1.5466614 -3.109375 -1.5463867q-1.84375 2.746582E-4 -3.1875 1.6098633q-1.34375 1.5939331 -1.34375 4.625183zm15.171875 8.419586l0 -22.90625l2.8125 -4.272461E-4l0 22.90625l-2.8125 4.272461E-4zm7.1875 -19.672974l0 -3.234375l2.8125 -4.272461E-4l0 3.234375l-2.8125 4.272461E-4zm0 19.671875l0 -16.59375l2.8125 -4.272461E-4l0 16.59375l-2.8125 4.272461E-4zm5.96875 -4.9540405l2.78125 -0.43792725q0.234375 1.6718445 1.296875 2.562317q1.078125 0.8904724 3.0 0.89016724q1.9375 -3.0517578E-4 2.875 -0.78167725q0.9375 -0.7970276 0.9375 -1.8595276q0 -0.953125 -0.828125 -1.4998779q-0.578125 -0.37490845 -2.875 -0.95269775q-3.09375 -0.7807617 -4.296875 -1.3430786q-1.1875 -0.5779419 -1.8125 -1.5778503q-0.609375 -1.0155334 -0.609375 -2.2342834q0 -1.109375 0.5 -2.0469666q0.515625 -0.95318604 1.390625 -1.5783386q0.65625 -0.48446655 1.78125 -0.81274414q1.140625 -0.3439331 2.4375 -0.34414673q1.953125 -2.746582E-4 3.421875 0.5619812q1.484375 0.5622864 2.1875 1.5309448q0.703125 0.9530029 0.96875 2.5623474l-2.75 0.37539673q-0.1875 -1.2812195 -1.09375 -1.9998169q-0.890625 -0.7186279 -2.53125 -0.7183838q-1.9375 3.0517578E-4 -2.765625 0.64105225q-0.828125 0.6407471 -0.828125 1.5001221q0 0.546875 0.34375 0.9843445q0.34375 0.45306396 1.078125 0.7498169q0.421875 0.15618896 2.484375 0.7183838q2.984375 0.79641724 4.15625 1.3118591q1.1875 0.4998169 1.859375 1.4684753q0.671875 0.96865845 0.671875 2.4061584q0 1.40625 -0.828125 2.656372q-0.8125 1.2344971 -2.359375 1.9222107q-1.546875 0.67211914 -3.5 0.6724243q-3.234375 4.8828125E-4 -4.9375 -1.3430176q-1.6875 -1.3434753 -2.15625 -3.9840393zm17.124985 4.950531l0 -22.90625l2.8125 -4.272461E-4l0 8.21875q1.96875 -2.2815552 4.96875 -2.282013q1.84375 -2.746582E-4 3.203125 0.7338867q1.359375 0.7185669 1.9375 1.9997253q0.59375 1.2811584 0.59375 3.7186584l0 10.515625l-2.8125 4.272461E-4l0 -10.515625q0 -2.109375 -0.921875 -3.062378q-0.90625 -0.9685974 -2.578125 -0.9683533q-1.25 1.8310547E-4 -2.359375 0.6566162q-1.09375 0.6407776 -1.5625 1.7502441q-0.46875 1.109436 -0.46875 3.062561l0 9.078125l-2.8125 4.272461E-4zm27.046875 -0.004119873l0 -22.90625l7.890625 -0.0011901855q2.671875 -3.9672852E-4 4.078125 0.32751465q1.96875 0.45281982 3.359375 1.6401062q1.8125 1.5309753 2.703125 3.9214783q0.90625 2.3748474 0.90625 5.4373474q0 2.609375 -0.609375 4.6250916q-0.609375 2.0157166 -1.5625 3.3439941q-0.953125 1.3126526 -2.09375 2.0784302q-1.125 0.7501831 -2.734375 1.1410522q-1.59375 0.39086914 -3.671875 0.39117432l-8.265625 0.0012512207zm3.03125 -2.7035828l4.890625 -7.324219E-4q2.265625 -3.3569336E-4 3.546875 -0.42242432q1.296875 -0.4220581 2.0625 -1.1878052q1.078125 -1.0782776 1.671875 -2.8908691q0.609375 -1.8282166 0.609375 -4.4219666q0 -3.59375 -1.1875 -5.5154724q-1.171875 -1.9373169 -2.859375 -2.5932922q-1.21875 -0.4685669 -3.921875 -0.46817017l-4.8125 7.324219E-4l0 17.5z" fill-rule="nonzero"></path><path fill="#d9d9d9" d="m151.3958 345.42303l162.49306 -0.02709961l0 -17.691742l26.35733 26.216095l-26.35733 26.224854l0 -17.691742l-162.49306 0.02709961z" fill-rule="evenodd"></path><path stroke="#000000" stroke-width="4.0" stroke-linejoin="round" stroke-linecap="butt" d="m151.3958 345.42303l162.49306 -0.02709961l0 -17.691742l26.35733 26.216095l-26.35733 26.224854l0 -17.691742l-162.49306 0.02709961z" fill-rule="evenodd"></path><path fill="#cccccc" d="m947.87006 164.0615l-98.10498 0l0 52.40901l98.10498 0z" fill-rule="evenodd"></path><path fill="#a3a3a3" d="m849.7651 164.0615l-17.469666 -17.469666l0 52.40901l17.469666 17.469666z" fill-rule="evenodd"></path><path fill="#d6d6d6" d="m947.87006 164.0615l-17.469666 -17.469666l-98.10498 0l17.469666 17.469666z" fill-rule="evenodd"></path><path fill="#000000" fill-opacity="0.0" d="m947.87006 164.0615l-17.469666 -17.469666l-98.10498 0l0 52.40901l17.469666 17.469666l98.10498 0zm0 0l-98.10498 0l-17.469666 -17.469666m17.469666 17.469666l0 52.40901" fill-rule="evenodd"></path><path stroke="#000000" stroke-width="4.0" stroke-linejoin="round" stroke-linecap="butt" d="m947.87006 164.0615l-17.469666 -17.469666l-98.10498 0l0 52.40901l17.469666 17.469666l98.10498 0zm0 0l-98.10498 0l-17.469666 -17.469666m17.469666 17.469666l0 52.40901" fill-rule="evenodd"></path><path fill="#d9d9d9" d="m930.12646 106.240585l-9.546448 0l0 47.84816l9.546448 0z" fill-rule="evenodd"></path><path fill="#adadad" d="m920.58 106.240585l-3.182129 -3.1821442l0 47.84816l3.182129 3.1821442z" fill-rule="evenodd"></path><path fill="#e0e0e0" d="m930.12646 106.240585l-3.182129 -3.1821442l-9.546448 0l3.182129 3.1821442z" fill-rule="evenodd"></path><path fill="#000000" fill-opacity="0.0" d="m930.12646 106.240585l-3.182129 -3.1821442l-9.546448 0l0 47.84816l3.182129 3.1821442l9.546448 0zm0 0l-9.546448 0l-3.182129 -3.1821442m3.182129 3.1821442l0 47.84816" fill-rule="evenodd"></path><path stroke="#000000" stroke-width="3.0" stroke-linejoin="round" stroke-linecap="butt" d="m930.12646 106.240585l-3.182129 -3.1821442l-9.546448 0l0 47.84816l3.182129 3.1821442l9.546448 0zm0 0l-9.546448 0l-3.182129 -3.1821442m3.182129 3.1821442l0 47.84816" fill-rule="evenodd"></path><path fill="#000000" fill-opacity="0.0" d="m924.8461 53.65783l0 0c-22.808044 0 -41.297607 10.13625 -41.297607 22.639938l41.297607 0z" fill-rule="evenodd"></path><path fill="#000000" fill-opacity="0.0" d="m924.8461 53.65783l0 0c-22.808044 0 -41.297607 10.13625 -41.297607 22.639938" fill-rule="evenodd"></path><path stroke="#000000" stroke-width="4.0" stroke-linejoin="round" stroke-linecap="butt" d="m924.8461 53.65783l0 0c-22.808044 0 -41.297607 10.13625 -41.297607 22.639938" fill-rule="evenodd"></path><path fill="#000000" fill-opacity="0.0" d="m924.8461 40.19849l0 0c-30.63617 0 -55.47168 13.149223 -55.47168 29.36961l55.47168 0z" fill-rule="evenodd"></path><path fill="#000000" fill-opacity="0.0" d="m924.8461 40.19849l0 0c-30.63617 0 -55.47168 13.149223 -55.47168 29.36961" fill-rule="evenodd"></path><path stroke="#000000" stroke-width="4.0" stroke-linejoin="round" stroke-linecap="butt" d="m924.8461 40.19849l0 0c-30.63617 0 -55.47168 13.149223 -55.47168 29.36961" fill-rule="evenodd"></path><path fill="#000000" fill-opacity="0.0" d="m923.7594 29.065456l0 0c-35.39563 0 -64.08948 15.641438 -64.08948 34.93613l64.08948 0z" fill-rule="evenodd"></path><path fill="#000000" fill-opacity="0.0" d="m923.7594 29.065456l0 0c-35.39563 0 -64.08948 15.641438 -64.08948 34.93613" fill-rule="evenodd"></path><path stroke="#000000" stroke-width="4.0" stroke-linejoin="round" stroke-linecap="butt" d="m923.7594 29.065456l0 0c-35.39563 0 -64.08948 15.641438 -64.08948 34.93613" fill-rule="evenodd"></path><path fill="#000000" fill-opacity="0.0" d="m923.75934 65.905556l0 0c-16.087341 0 -29.128723 6.2243347 -29.128723 13.902443l29.128723 0z" fill-rule="evenodd"></path><path fill="#000000" fill-opacity="0.0" d="m923.75934 65.905556l0 0c-16.087341 0 -29.128723 6.2243347 -29.128723 13.902443" fill-rule="evenodd"></path><path stroke="#000000" stroke-width="4.0" stroke-linejoin="round" stroke-linecap="butt" d="m923.75934 65.905556l0 0c-16.087341 0 -29.128723 6.2243347 -29.128723 13.902443" fill-rule="evenodd"></path><path fill="#000000" fill-opacity="0.0" d="m1002.1853 216.47075l-172.91815 0l0 29.632874l172.91815 0z" fill-rule="evenodd"></path><path fill="#000000" d="m857.07965 248.1595l3.03125 0.765625q-0.953125 3.734375 -3.4375 5.703125q-2.46875 1.9531097 -6.046875 1.9531097q-3.703125 0 -6.03125 -1.4999847q-2.3125 -1.515625 -3.53125 -4.375q-1.203125 -2.859375 -1.203125 -6.140625q0 -3.578125 1.359375 -6.234375q1.375 -2.671875 3.890625 -4.046875q2.53125 -1.390625 5.5625 -1.390625q3.4375 0 5.78125 1.75q2.34375 1.75 3.265625 4.921875l-2.984375 0.703125q-0.796875 -2.5 -2.3125 -3.640625q-1.515625 -1.140625 -3.8125 -1.140625q-2.640625 0 -4.421875 1.265625q-1.765625 1.265625 -2.484375 3.40625q-0.71875 2.125 -0.71875 4.390625q0 2.921875 0.84375 5.109375q0.859375 2.171875 2.65625 3.25q1.796875 1.078125 3.890625 1.078125q2.546875 0 4.3125 -1.46875q1.765625 -1.46875 2.390625 -4.359375zm6.34375 8.031235l0 -22.906235l2.8125 0l0 22.906235l-2.8125 0zm7.1875 -19.67186l0 -3.234375l2.8125 0l0 3.234375l-2.8125 0zm0 19.67186l0 -16.593735l2.8125 0l0 16.593735l-2.8125 0zm18.453125 -5.3437347l2.90625 0.359375q-0.6875 2.546875 -2.546875 3.953125q-1.859375 1.4062347 -4.75 1.4062347q-3.640625 0 -5.78125 -2.2343597q-2.125 -2.25 -2.125 -6.296875q0 -4.1875 2.15625 -6.5q2.15625 -2.3125 5.59375 -2.3125q3.328125 0 5.4375 2.265625q2.109375 2.265625 2.109375 6.375q0 0.25 -0.015625 0.75l-12.375 0q0.15625 2.734375 1.546875 4.1875q1.390625 1.453125 3.46875 1.453125q1.546875 0 2.640625 -0.8125q1.09375 -0.8125 1.734375 -2.59375zm-9.234375 -4.546875l9.265625 0q-0.1875 -2.09375 -1.0625 -3.140625q-1.34375 -1.625 -3.484375 -1.625q-1.9375 0 -3.265625 1.296875q-1.3125 1.296875 -1.453125 3.46875zm15.671875 9.89061l0 -16.593735l2.53125 0l0 2.359375q1.828125 -2.734375 5.28125 -2.734375q1.5 0 2.75 0.546875q1.265625 0.53125 1.890625 1.40625q0.625 0.875 0.875 2.078125q0.15625 0.78125 0.15625 2.734375l0 10.20311l-2.8125 0l0 -10.093735q0 -1.71875 -0.328125 -2.5625q-0.328125 -0.859375 -1.171875 -1.359375q-0.828125 -0.515625 -1.953125 -0.515625q-1.796875 0 -3.109375 1.140625q-1.296875 1.140625 -1.296875 4.328125l0 9.062485l-2.8125 0zm23.9375 -2.5156097l0.40625 2.4843597q-1.1875 0.25 -2.125 0.25q-1.53125 0 -2.375 -0.48435974q-0.84375 -0.484375 -1.1875 -1.265625q-0.34375 -0.796875 -0.34375 -3.328125l0 -9.546875l-2.0625 0l0 -2.1875l2.0625 0l0 -4.109375l2.796875 -1.6875l0 5.796875l2.828125 0l0 2.1875l-2.828125 0l0 9.703125q0 1.203125 0.140625 1.546875q0.15625 0.34375 0.484375 0.546875q0.34375 0.203125 0.96875 0.203125q0.46875 0 1.234375 -0.109375zm25.640625 -0.1875l0 2.7031097l-15.140625 0q-0.03125 -1.0156097 0.328125 -1.9531097q0.578125 -1.546875 1.84375 -3.046875q1.28125 -1.5 3.6875 -3.46875q3.734375 -3.0625 5.046875 -4.84375q1.3125 -1.796875 1.3125 -3.390625q0 -1.671875 -1.203125 -2.8125q-1.1875 -1.15625 -3.109375 -1.15625q-2.03125 0 -3.25 1.21875q-1.21875 1.21875 -1.234375 3.375l-2.890625 -0.296875q0.296875 -3.234375 2.234375 -4.921875q1.9375 -1.703125 5.203125 -1.703125q3.296875 0 5.21875 1.828125q1.921875 1.828125 1.921875 4.53125q0 1.375 -0.5625 2.703125q-0.5625 1.328125 -1.875 2.796875q-1.296875 1.46875 -4.328125 4.03125q-2.53125 2.125 -3.25 2.890625q-0.71875 0.75 -1.1875 1.515625l11.234375 0z" fill-rule="nonzero"></path><path fill="#000000" fill-opacity="0.0" d="m1119.1692 62.583767l-370.6657 0l0 48.971455l370.6657 0z" fill-rule="evenodd"></path><path fill="#cccccc" d="m938.5892 590.072l-98.10492 0l0 52.408997l98.10492 0z" fill-rule="evenodd"></path><path fill="#a3a3a3" d="m840.48425 590.072l-17.469666 -17.469666l0 52.408997l17.469666 17.469666z" fill-rule="evenodd"></path><path fill="#d6d6d6" d="m938.5892 590.072l-17.469666 -17.469666l-98.10492 0l17.469666 17.469666z" fill-rule="evenodd"></path><path fill="#000000" fill-opacity="0.0" d="m938.5892 590.072l-17.469666 -17.469666l-98.10492 0l0 52.408997l17.469666 17.469666l98.10492 0zm0 0l-98.10492 0l-17.469666 -17.469666m17.469666 17.469666l0 52.408997" fill-rule="evenodd"></path><path stroke="#000000" stroke-width="4.0" stroke-linejoin="round" stroke-linecap="butt" d="m938.5892 590.072l-17.469666 -17.469666l-98.10492 0l0 52.408997l17.469666 17.469666l98.10492 0zm0 0l-98.10492 0l-17.469666 -17.469666m17.469666 17.469666l0 52.408997" fill-rule="evenodd"></path><path fill="#d9d9d9" d="m920.84564 532.2511l-9.546448 0l0 47.848145l9.546448 0z" fill-rule="evenodd"></path><path fill="#adadad" d="m911.2992 532.2511l-3.182129 -3.18219l0 47.848206l3.182129 3.182129z" fill-rule="evenodd"></path><path fill="#e0e0e0" d="m920.84564 532.2511l-3.18219 -3.18219l-9.546387 0l3.182129 3.18219z" fill-rule="evenodd"></path><path fill="#000000" fill-opacity="0.0" d="m920.84564 532.2511l-3.18219 -3.18219l-9.546387 0l0 47.848206l3.182129 3.182129l9.546448 0zm0 0l-9.546448 0l-3.182129 -3.18219m3.182129 3.18219l0 47.848145" fill-rule="evenodd"></path><path stroke="#000000" stroke-width="3.0" stroke-linejoin="round" stroke-linecap="butt" d="m920.84564 532.2511l-3.18219 -3.18219l-9.546387 0l0 47.848206l3.182129 3.182129l9.546448 0zm0 0l-9.546448 0l-3.182129 -3.18219m3.182129 3.18219l0 47.848145" fill-rule="evenodd"></path><path fill="#000000" fill-opacity="0.0" d="m915.5653 479.66833l0 0c-22.808044 0 -41.29767 10.13623 -41.29767 22.639923l41.29767 0z" fill-rule="evenodd"></path><path fill="#000000" fill-opacity="0.0" d="m915.5653 479.66833l0 0c-22.808044 0 -41.29767 10.13623 -41.29767 22.639923" fill-rule="evenodd"></path><path stroke="#000000" stroke-width="4.0" stroke-linejoin="round" stroke-linecap="butt" d="m915.5653 479.66833l0 0c-22.808044 0 -41.29767 10.13623 -41.29767 22.639923" fill-rule="evenodd"></path><path fill="#000000" fill-opacity="0.0" d="m915.5653 466.20898l0 0c-30.63617 0 -55.47174 13.149231 -55.47174 29.369629l55.47174 0z" fill-rule="evenodd"></path><path fill="#000000" fill-opacity="0.0" d="m915.5653 466.20898l0 0c-30.63617 0 -55.47174 13.149231 -55.47174 29.369629" fill-rule="evenodd"></path><path stroke="#000000" stroke-width="4.0" stroke-linejoin="round" stroke-linecap="butt" d="m915.5653 466.20898l0 0c-30.63617 0 -55.47174 13.149231 -55.47174 29.369629" fill-rule="evenodd"></path><path fill="#000000" fill-opacity="0.0" d="m914.4785 455.07596l0 0c-35.39557 0 -64.08942 15.641418 -64.08942 34.936127l64.08942 0z" fill-rule="evenodd"></path><path fill="#000000" fill-opacity="0.0" d="m914.4785 455.07596l0 0c-35.39557 0 -64.08942 15.641418 -64.08942 34.936127" fill-rule="evenodd"></path><path stroke="#000000" stroke-width="4.0" stroke-linejoin="round" stroke-linecap="butt" d="m914.4785 455.07596l0 0c-35.39557 0 -64.08942 15.641418 -64.08942 34.936127" fill-rule="evenodd"></path><path fill="#000000" fill-opacity="0.0" d="m914.4785 491.91605l0 0c-16.087341 0 -29.128784 6.2243347 -29.128784 13.902466l29.128784 0z" fill-rule="evenodd"></path><path fill="#000000" fill-opacity="0.0" d="m914.4785 491.91605l0 0c-16.087341 0 -29.128784 6.2243347 -29.128784 13.902466" fill-rule="evenodd"></path><path stroke="#000000" stroke-width="4.0" stroke-linejoin="round" stroke-linecap="butt" d="m914.4785 491.91605l0 0c-16.087341 0 -29.128784 6.2243347 -29.128784 13.902466" fill-rule="evenodd"></path><path fill="#000000" fill-opacity="0.0" d="m995.93335 654.0534l-172.91815 0l0 29.632874l172.91815 0z" fill-rule="evenodd"></path><path fill="#000000" d="m850.8277 685.7422l3.03125 0.765625q-0.953125 3.734375 -3.4375 5.703125q-2.46875 1.953125 -6.046875 1.953125q-3.703125 0 -6.03125 -1.5q-2.3125 -1.515625 -3.53125 -4.375q-1.203125 -2.859375 -1.203125 -6.140625q0 -3.578125 1.359375 -6.234375q1.375 -2.671875 3.890625 -4.046875q2.53125 -1.390625 5.5625 -1.390625q3.4375 0 5.78125 1.75q2.34375 1.75 3.265625 4.921875l-2.984375 0.703125q-0.796875 -2.5 -2.3125 -3.640625q-1.515625 -1.140625 -3.8125 -1.140625q-2.640625 0 -4.421875 1.265625q-1.765625 1.265625 -2.484375 3.40625q-0.71875 2.125 -0.71875 4.390625q0 2.921875 0.84375 5.109375q0.859375 2.171875 2.65625 3.25q1.796875 1.078125 3.890625 1.078125q2.546875 0 4.3125 -1.46875q1.765625 -1.46875 2.390625 -4.359375zm6.34375 8.03125l0 -22.90625l2.8125 0l0 22.90625l-2.8125 0zm7.1875 -19.671875l0 -3.234375l2.8125 0l0 3.234375l-2.8125 0zm0 19.671875l0 -16.59375l2.8125 0l0 16.59375l-2.8125 0zm18.453125 -5.34375l2.90625 0.359375q-0.6875 2.546875 -2.546875 3.953125q-1.859375 1.40625 -4.75 1.40625q-3.640625 0 -5.78125 -2.234375q-2.125 -2.25 -2.125 -6.296875q0 -4.1875 2.15625 -6.5q2.15625 -2.3125 5.59375 -2.3125q3.328125 0 5.4375 2.265625q2.109375 2.265625 2.109375 6.375q0 0.25 -0.015625 0.75l-12.375 0q0.15625 2.734375 1.546875 4.1875q1.390625 1.453125 3.46875 1.453125q1.546875 0 2.640625 -0.8125q1.09375 -0.8125 1.734375 -2.59375zm-9.234375 -4.546875l9.265625 0q-0.1875 -2.09375 -1.0625 -3.140625q-1.34375 -1.625 -3.484375 -1.625q-1.9375 0 -3.265625 1.296875q-1.3125 1.296875 -1.453125 3.46875zm15.671875 9.890625l0 -16.59375l2.53125 0l0 2.359375q1.828125 -2.734375 5.28125 -2.734375q1.5 0 2.75 0.546875q1.265625 0.53125 1.890625 1.40625q0.625 0.875 0.875 2.078125q0.15625 0.78125 0.15625 2.734375l0 10.203125l-2.8125 0l0 -10.09375q0 -1.71875 -0.328125 -2.5625q-0.328125 -0.859375 -1.171875 -1.359375q-0.828125 -0.515625 -1.953125 -0.515625q-1.796875 0 -3.109375 1.140625q-1.296875 1.140625 -1.296875 4.328125l0 9.0625l-2.8125 0zm23.9375 -2.515625l0.40625 2.484375q-1.1875 0.25 -2.125 0.25q-1.53125 0 -2.375 -0.484375q-0.84375 -0.484375 -1.1875 -1.265625q-0.34375 -0.796875 -0.34375 -3.328125l0 -9.546875l-2.0625 0l0 -2.1875l2.0625 0l0 -4.109375l2.796875 -1.6875l0 5.796875l2.828125 0l0 2.1875l-2.828125 0l0 9.703125q0 1.203125 0.140625 1.546875q0.15625 0.34375 0.484375 0.546875q0.34375 0.203125 0.96875 0.203125q0.46875 0 1.234375 -0.109375zm10.875 -3.53125l2.8125 -0.375q0.484375 2.390625 1.640625 3.453125q1.171875 1.046875 2.84375 1.046875q1.984375 0 3.34375 -1.375q1.375 -1.375 1.375 -3.40625q0 -1.9375 -1.265625 -3.1875q-1.265625 -1.265625 -3.21875 -1.265625q-0.796875 0 -1.984375 0.3125l0.3125 -2.46875q0.28125 0.03125 0.453125 0.03125q1.796875 0 3.234375 -0.9375q1.4375 -0.9375 1.4375 -2.890625q0 -1.546875 -1.046875 -2.5625q-1.046875 -1.015625 -2.703125 -1.015625q-1.640625 0 -2.734375 1.03125q-1.09375 1.03125 -1.40625 3.09375l-2.8125 -0.5q0.515625 -2.828125 2.34375 -4.375q1.828125 -1.5625 4.546875 -1.5625q1.875 0 3.453125 0.8125q1.578125 0.796875 2.40625 2.1875q0.84375 1.390625 0.84375 2.953125q0 1.484375 -0.796875 2.703125q-0.796875 1.21875 -2.359375 1.9375q2.03125 0.46875 3.15625 1.953125q1.125 1.46875 1.125 3.6875q0 3.0 -2.1875 5.09375q-2.1875 2.078125 -5.53125 2.078125q-3.015625 0 -5.015625 -1.796875q-1.984375 -1.796875 -2.265625 -4.65625z" fill-rule="nonzero"></path><path fill="#000000" fill-opacity="0.0" d="m1109.8884 488.59427l-370.66577 0l0 48.971466l370.66577 0z" fill-rule="evenodd"></path><path fill="#d9d9d9" d="m669.6464 305.59634l98.35199 -66.71687l-6.896057 -12.485153l27.805542 6.5751343l-7.364624 30.43274l-6.896057 -12.485168l-98.35193 66.71686z" fill-rule="evenodd"></path><path stroke="#000000" stroke-width="4.0" stroke-linejoin="round" stroke-linecap="butt" d="m669.6464 305.59634l98.35199 -66.71687l-6.896057 -12.485153l27.805542 6.5751343l-7.364624 30.43274l-6.896057 -12.485168l-98.35193 66.71686z" fill-rule="evenodd"></path><path fill="#d9d9d9" d="m675.0648 474.6058l111.09473 42.24167l6.269165 -12.814545l10.574524 26.545746l-29.157166 11.438477l6.269104 -12.814514l-111.09479 -42.24167z" fill-rule="evenodd"></path><path stroke="#000000" stroke-width="4.0" stroke-linejoin="round" stroke-linecap="butt" d="m675.0648 474.6058l111.09473 42.24167l6.269165 -12.814545l10.574524 26.545746l-29.157166 11.438477l6.269104 -12.814514l-111.09479 -42.24167z" fill-rule="evenodd"></path><path fill="#000000" fill-opacity="0.0" d="m789.7363 189.03073l-115.0473 29.817184l2.305725 14.07901l-23.992004 -15.533722l17.157349 -26.198563l2.3057861 14.079025l115.04736 -29.8172z" fill-rule="evenodd"></path><path stroke="#000000" stroke-width="4.0" stroke-linejoin="round" stroke-linecap="butt" d="m789.7363 189.03073l-115.0473 29.817184l2.305725 14.07901l-23.992004 -15.533722l17.157349 -26.198563l2.3057861 14.079025l115.04736 -29.8172z" fill-rule="evenodd"></path><path fill="#000000" fill-opacity="0.0" d="m764.52405 622.59814l-97.44092 -68.051025l-9.201843 10.9019165l-3.7874146 -28.326904l31.062988 -3.988037l-9.201843 10.9019165l97.44098 68.051025z" fill-rule="evenodd"></path><path stroke="#000000" stroke-width="4.0" stroke-linejoin="round" stroke-linecap="butt" d="m764.52405 622.59814l-97.44092 -68.051025l-9.201843 10.9019165l-3.7874146 -28.326904l31.062988 -3.988037l-9.201843 10.9019165l97.44098 68.051025z" fill-rule="evenodd"></path><path fill="#000000" fill-opacity="0.0" d="m636.0299 149.81285l204.09448 -36.09449l8.251953 46.677162l-204.09448 36.094482z" fill-rule="evenodd"></path><path fill="#000000" d="m650.5716 174.1771l2.0752563 -0.5574188q0.37695312 1.2344666 1.0596313 1.9547119q0.6980591 0.71751404 1.9417725 1.0211945q1.2410278 0.2882843 2.687317 0.03250122q1.2770996 -0.2258606 2.1965332 -0.76927185q0.916687 -0.55882263 1.2767334 -1.304779q0.35723877 -0.7613678 0.21850586 -1.5460663q-0.13867188 -0.78471375 -0.70635986 -1.3031464q-0.567688 -0.5184326 -1.7000732 -0.73072815q-0.72320557 -0.1418457 -3.159851 -0.28215027q-2.4239502 -0.15841675 -3.449585 -0.484787q-1.3270264 -0.4158783 -2.0930176 -1.2483215q-0.75335693 -0.8505554 -0.9573364 -2.004547q-0.22851562 -1.29245 0.29882812 -2.5281677q0.5426636 -1.2384338 1.8267822 -2.0526276q1.296814 -0.8323059 3.0046387 -1.1343384q1.8771362 -0.3319702 3.4141235 0.015029907q1.5524292 0.34429932 2.531189 1.3929901q0.99139404 1.0305939 1.3014526 2.5149078l-2.1087646 0.54748535q-0.45489502 -1.5856476 -1.5991821 -2.2242432q-1.1442261 -0.63861084 -3.0983276 -0.29304504q-2.0309448 0.3591919 -2.8362427 1.2791138q-0.79260254 0.9018097 -0.607605 1.9480896q0.16046143 0.90779114 0.92541504 1.375473q0.75231934 0.4857788 3.5844727 0.6195984q2.8475952 0.13110352 3.9447021 0.41311646q1.5967407 0.41577148 2.47406 1.3395996q0.89276123 0.9210968 1.1321411 2.2751007q0.23937988 1.3540039 -0.31774902 2.6902008q-0.5598755 1.320816 -1.8865356 2.253601q-1.3292847 0.9173889 -3.1448975 1.2384796q-2.2925415 0.40544128 -3.963501 0.018661499q-1.673706 -0.4021759 -2.8027344 -1.5829773q-1.116394 -1.1988983 -1.461792 -2.8832397zm25.247375 1.1361694l-0.3182373 -1.8002014q-1.0637207 2.3302155 -3.5101318 2.7628784q-1.0924072 0.19319153 -2.1044312 -0.056259155q-1.0119629 -0.24945068 -1.585083 -0.7986603q-0.55773926 -0.55192566 -0.90289307 -1.427063q-0.24725342 -0.5909729 -0.48120117 -1.9141998l-1.34375 -7.600891l2.0771484 -0.3673401l1.2023315 6.8007812q0.28833008 1.6309662 0.5274048 2.175766q0.32885742 0.7828369 1.0440063 1.1482391q0.7277832 0.34732056 1.6663818 0.18132019q0.92315674 -0.16325378 1.6542969 -0.78445435q0.74383545 -0.6392975 0.9381714 -1.5146484q0.19158936 -0.8907318 -0.085876465 -2.460144l-1.161499 -6.569992l2.0771484 -0.3673401l2.1679688 12.262955l-1.8617554 0.32925415zm7.0353394 -1.2442169l-1.9232788 0.34013367l-2.9921265 -16.925049l2.0771484 -0.3673401l1.0690308 6.0468597q1.0140381 -1.8930206 3.0604248 -2.2549286q1.123169 -0.19863892 2.2202759 0.083358765q1.0971069 0.28199768 1.8901978 0.99858093q0.7904053 0.70118713 1.366394 1.8052521q0.5733032 1.0886841 0.8099365 2.4272919q0.55493164 3.1388245 -0.694458 5.1369324q-1.2493286 1.9981079 -3.434204 2.3845062q-2.1694336 0.383667 -3.7213135 -1.2142334l0.27197266 1.5386353zm-1.1296997 -6.210663q0.38897705 2.2002563 1.163147 3.0788574q1.2676392 1.4260406 2.9447021 1.1294403q1.3540039 -0.23945618 2.1292725 -1.5983582q0.7906494 -1.361618 0.37719727 -3.700348q-0.4243164 -2.4002838 -1.5795898 -3.3701782q-1.1425781 -0.98799133 -2.496521 -0.74853516q-1.3693848 0.24217224 -2.1600342 1.6038055q-0.77526855 1.358902 -0.37817383 3.6053162zm10.871887 0.71128845l2.0046387 -0.68774414q0.38684082 1.2009888 1.2885132 1.7238312q0.9170532 0.5201111 2.3325806 0.2697754q1.4309082 -0.25306702 2.0199585 -0.9601898q0.58898926 -0.70713806 0.45025635 -1.4918518q-0.12512207 -0.7077637 -0.8112793 -0.99897766q-0.4644165 -0.20347595 -2.248413 -0.33226013q-2.3778076 -0.1665802 -3.343689 -0.42417908q-0.953125 -0.27572632 -1.5452881 -0.93263245q-0.5795288 -0.67503357 -0.7373047 -1.5674438q-0.14416504 -0.81547546 0.10272217 -1.5731659q0.25952148 -0.7758026 0.8241577 -1.3516846q0.4144287 -0.43823242 1.2017212 -0.83135986q0.8000488 -0.41122437 1.7539673 -0.5799408q1.4462891 -0.25578308 2.6121826 -0.03353882q1.1658325 0.222229 1.8014526 0.8555908q0.6482544 0.6152649 1.0577393 1.7646484l-1.9820557 0.6361389q-0.3071289 -0.9294739 -1.0612183 -1.3356018q-0.7567749 -0.42152405 -1.97229 -0.20655823q-1.4309082 0.25306702 -1.9620361 0.83888245q-0.5311279 0.5858307 -0.4196167 1.2166748q0.070739746 0.40003967 0.3894043 0.67689514q0.30603027 0.29496765 0.89801025 0.41241455q0.32946777 0.06866455 1.9261475 0.21472168q2.3035889 0.19555664 3.2332764 0.4278412q0.94226074 0.21417236 1.5625 0.8502655q0.63287354 0.61798096 0.82055664 1.6796417q0.18225098 1.0308838 -0.27001953 2.062912q-0.4368286 1.0293121 -1.4856567 1.7384186q-1.0515137 0.6937256 -2.4978638 0.94950867q-2.3848267 0.4217682 -3.8206177 -0.3398285q-1.4230957 -0.77970886 -2.1224365 -2.6712036zm20.501465 -4.482559l2.0925903 -0.1003418q0.036865234 2.183197 -1.1356812 3.6282349q-1.1599731 1.4269257 -3.175537 1.7833862q-2.5079346 0.44354248 -4.3376465 -0.9306946q-1.81427 -1.3769684 -2.3555908 -4.438858q-0.3508911 -1.984848 0.046875 -3.5943298q0.3977661 -1.6094971 1.6057739 -2.5847778q1.2053223 -0.9906616 2.7901 -1.270935q2.000183 -0.3537445 3.4414062 0.43862915q1.456604 0.7896576 2.1369019 2.5734406l-1.9584961 0.6795807q-0.5126343 -1.1946106 -1.3599854 -1.6794434q-0.8347168 -0.5029602 -1.8809814 -0.31791687q-1.569397 0.2775421 -2.3527832 1.5902863q-0.770813 1.294632 -0.34100342 3.7256927q0.4352417 2.4618225 1.5723267 3.4190369q1.1525269 0.95451355 2.6757812 0.6851196q1.2155151 -0.21496582 1.8977051 -1.1131134q0.6975708 -0.9008789 0.6382446 -2.4929962zm4.5946655 3.8207245l-2.1679688 -12.26297l1.8617554 -0.32925415l0.3291626 1.8617554q0.49194336 -1.43573 1.0185547 -1.9572906q0.5419922 -0.52427673 1.2651367 -0.65216064q1.0462646 -0.18504333 2.2583618 0.2987671l-0.38311768 2.0511932q-0.8328247 -0.31288147 -1.6021118 -0.17681885q-0.67700195 0.11972046 -1.1574707 0.6331177q-0.46777344 0.49528503 -0.57073975 1.2592621q-0.14263916 1.1676788 0.091308594 2.490921l1.1342773 6.4161224l-2.0771484 0.36735535zm5.333008 -15.922043l-0.4243164 -2.4002838l2.0771484 -0.36735535l0.4243164 2.4002838l-2.0771484 0.36735535zm2.56781 14.524765l-2.1679077 -12.26297l2.0771484 -0.3673401l2.1679077 12.262955l-2.0771484 0.36735535zm7.1584473 -1.2659912l-1.9232788 0.34013367l-2.9921265 -16.925049l2.0771484 -0.3673401l1.0690308 6.0468597q1.0140381 -1.8930206 3.0604248 -2.2549286q1.123169 -0.19863892 2.2202759 0.083358765q1.0971069 0.28199768 1.8901978 0.99858093q0.7904053 0.7012024 1.366394 1.8052521q0.5732422 1.0886841 0.8099365 2.4272919q0.5548706 3.1388245 -0.694458 5.1369324q-1.2493896 1.9981079 -3.434204 2.3845062q-2.1694336 0.383667 -3.7213135 -1.2142334l0.27197266 1.5386353zm-1.1296997 -6.210663q0.38897705 2.2002563 1.163147 3.0788574q1.2675781 1.4260406 2.9447021 1.1294403q1.3540039 -0.23945618 2.1292725 -1.5983582q0.7906494 -1.361618 0.37719727 -3.700348q-0.42437744 -2.4002838 -1.5795898 -3.3701782q-1.1425781 -0.98799133 -2.496582 -0.74853516q-1.3693237 0.24217224 -2.1600342 1.6038055q-0.77526855 1.358902 -0.3781128 3.6053162zm20.05194 -1.2136993l2.187622 -0.10128784q-0.17584229 1.9669495 -1.3602905 3.2554016q-1.1871338 1.273056 -3.3258057 1.6512909q-2.692566 0.4761963 -4.5684204 -0.8898773q-1.8631592 -1.3841858 -2.3936157 -4.3845367q-0.5466919 -3.0926666 0.736145 -5.080826q1.2982178 -1.9908905 3.836975 -2.439865q2.461792 -0.43537903 4.312256 0.96691895q1.8659058 1.3995667 2.4017944 4.4306793q0.032592773 0.1846466 0.08251953 0.5566406l-9.139404 1.6163177q0.46398926 1.9965668 1.6853027 2.8913116q1.2213135 0.8947296 2.7598877 0.6226196q1.1386108 -0.20135498 1.8325806 -0.94291687q0.7094116 -0.7442932 0.9524536 -2.1518707zm-7.4244995 -2.1460724l6.846924 -1.2108917q-0.41052246 -1.5141449 -1.1954956 -2.1845703q-1.1968384 -1.0259857 -2.7816162 -0.7457123q-1.4309692 0.25305176 -2.2443237 1.3965454q-0.8006592 1.1253815 -0.6254883 2.744629zm19.940186 4.0105743l-1.8823242 -10.647385l-1.8463135 0.32652283l-0.28564453 -1.6155701l1.8463745 -0.32652283l-0.22851562 -1.2924652q-0.22033691 -1.2462921 -0.11102295 -1.8844604q0.15093994 -0.8517914 0.81781006 -1.4774933q0.6795044 -0.6437988 2.0335083 -0.883255q0.87701416 -0.15510559 1.97406 -0.14283752l0.013244629 1.8700104q-0.66796875 -0.008804321 -1.2526855 0.09460449q-0.9385376 0.1659851 -1.2651367 0.65216064q-0.31396484 0.4680786 -0.11810303 1.5758972l0.19854736 1.1232147l2.3848877 -0.4217682l0.28564453 1.6155701l-2.3848877 0.4217682l1.8823242 10.647385l-2.0617676 0.36462402zm4.206421 -7.0591583q-0.60388184 -3.4157867 1.0003052 -5.381439q1.3427124 -1.6496582 3.619873 -2.0523682q2.5233154 -0.44625854 4.4172974 0.93247986q1.8939209 1.3787384 2.40802 4.2867584q0.41888428 2.3695068 -0.04949951 3.8486786q-0.4683838 1.479187 -1.6890869 2.4725647q-1.2207031 0.99339294 -2.8208618 1.2763824q-2.5849 0.45715332 -4.4607544 -0.9089203q-1.87854 -1.3814697 -2.425293 -4.4741364zm2.1386719 -0.37823486q0.41619873 2.354126 1.6384277 3.3439026q1.2376099 0.98706055 2.8070068 0.7095032q1.5386353 -0.27211 2.362793 -1.6237946q0.82141113 -1.3670654 0.39434814 -3.78273q-0.4025879 -2.2771912 -1.6555786 -3.2615204q-1.2376099 -0.9870453 -2.7608643 -0.7176666q-1.569397 0.27755737 -2.3935547 1.6292267q-0.8087158 1.3489685 -0.39257812 3.7030792zm12.841553 4.0442047l-2.1679077 -12.26297l1.8616943 -0.3292389l0.3291626 1.8617554q0.49194336 -1.4357452 1.0185547 -1.9572906q0.5419922 -0.52427673 1.2651367 -0.6521759q1.0462646 -0.18502808 2.2583618 0.2987671l-0.38311768 2.0511932q-0.8328247 -0.3128662 -1.6021118 -0.17681885q-0.67700195 0.11973572 -1.1574707 0.6331177q-0.46777344 0.49528503 -0.57073975 1.2592621q-0.14263916 1.1676941 0.091308594 2.490921l1.1342773 6.4161377l-2.0771484 0.3673401zm21.294556 -3.765976l-2.9921265 -16.925049l5.815979 -1.0285645q1.9848633 -0.35102844 3.059204 -0.28715515q1.5215454 0.08000183 2.6920776 0.7774353q1.5371704 0.8864746 2.5115967 2.5388947q0.9871216 1.6343231 1.3869629 3.8961334q0.34002686 1.9232941 0.14227295 3.497406q-0.18231201 1.5713959 -0.7160034 2.6812897q-0.5209961 1.0917969 -1.2693481 1.7953644q-0.73291016 0.70085144 -1.8659668 1.202713q-1.1330566 0.50187683 -2.671692 0.7739868l-6.0929565 1.0775452zm1.8773804 -2.3947906l3.6157837 -0.6394501q1.677124 -0.29660034 2.5612793 -0.7703247q0.89953613 -0.47642517 1.3681641 -1.1464081q0.6586304 -0.94158936 0.86816406 -2.3591156q0.20684814 -1.4329224 -0.13043213 -3.3408356q-0.47058105 -2.66185 -1.5978394 -3.922287q-1.1300049 -1.2758331 -2.4606323 -1.5324097q-0.95495605 -0.19606018 -2.9551392 0.15766907l-3.5542603 0.62857056l2.284912 12.924591z" fill-rule="nonzero"></path><path fill="#000000" fill-opacity="0.0" d="m623.7911 538.46387l168.25195 121.03937l-27.685059 38.48816l-168.25195 -121.03937z" fill-rule="evenodd"></path><path fill="#000000" d="m616.4836 565.8818l1.847168 1.0978394q-0.6213379 1.1313477 -0.6609497 2.1229858q-0.026977539 1.0007935 0.62323 2.1036987q0.65930176 1.090271 1.8516235 1.947998q1.0527344 0.7573242 2.083496 1.0368652q1.039856 0.26690674 1.8253784 0.004333496q0.79467773 -0.27526855 1.2600098 -0.92211914q0.46533203 -0.6469116 0.4406128 -1.4153442q-0.024658203 -0.7684326 -0.66259766 -1.7278442q-0.40301514 -0.61712646 -2.0025024 -2.4606934q-1.5776367 -1.847168 -2.0593872 -2.8096924q-0.6279907 -1.2409058 -0.56604004 -2.3704834q0.0836792 -1.1331787 0.76794434 -2.0845337q0.76641846 -1.0654907 2.0195312 -1.5498657q1.2657471 -0.47528076 2.744873 -0.123413086q1.5009766 0.34838867 2.9088745 1.361206q1.5474243 1.1132202 2.3711548 2.456482q0.8364868 1.352417 0.76812744 2.7853394q-0.046569824 1.4293823 -0.8935547 2.6871338l-1.8634033 -1.1287842q0.81848145 -1.432251 0.4776001 -2.6976318q-0.34088135 -1.2653809 -1.9517212 -2.4241943q-1.6742554 -1.2044678 -2.8950806 -1.1395264q-1.1989746 0.061340332 -1.819397 0.92388916q-0.5383301 0.74835205 -0.3395996 1.6227417q0.17687988 0.8779297 2.0569458 3.0003662q1.8927612 2.1315918 2.4561768 3.1143188q0.81622314 1.434082 0.7665405 2.7072754q-0.036987305 1.2822266 -0.8399048 2.3984985q-0.8029175 1.1162109 -2.1487427 1.649353q-1.336731 0.5204468 -2.930481 0.2208252q-1.5846558 -0.31225586 -3.0812988 -1.388977q-1.8899536 -1.3596191 -2.7786865 -2.8265991q-0.87957764 -1.4797363 -0.82147217 -3.1124878q0.079956055 -1.6363525 1.0455322 -3.05896zm16.80072 18.88086l1.0675049 -1.4840698q-2.411377 0.86383057 -4.4281006 -0.58703613q-0.9005127 -0.64782715 -1.4279175 -1.546936q-0.52734375 -0.89904785 -0.5338135 -1.6928711q0.006286621 -0.78466797 0.39239502 -1.6425171q0.25079346 -0.5895386 1.0354614 -1.6803589l4.507263 -6.2661133l1.7123413 1.2318726l-4.032837 5.6064453q-0.9671631 1.3445435 -1.1905518 1.8959961q-0.33135986 0.7817993 -0.094177246 1.5491333q0.25897217 0.7637329 1.0327148 1.3203735q0.76104736 0.54748535 1.7161255 0.6378784q0.9768677 0.08679199 1.739502 -0.3847046q0.7717285 -0.48425293 1.7023926 -1.7780151l3.895935 -5.41626l1.7123413 1.2318726l-7.2718506 10.109436l-1.534729 -1.104126zm5.7996826 4.1723022l-1.5854492 -1.140625l10.036377 -13.952759l1.7123413 1.2318115l-3.5857544 4.9849854q2.0635376 -0.59436035 3.7504883 0.6192627q0.9259033 0.66607666 1.4893188 1.6488647q0.5634155 0.98272705 0.6034546 2.0509644q0.0491333 1.055481 -0.33984375 2.2384644q-0.3798828 1.1703491 -1.173706 2.2738647q-1.8612671 2.5876465 -4.1642456 3.08667q-2.3029785 0.49908447 -4.104065 -0.79663086q-1.7884521 -1.2866211 -1.7265015 -3.5133057l-0.91241455 1.2684326zm3.6607666 -5.142761q-1.3047485 1.8139038 -1.394043 2.9815674q-0.13708496 1.9031372 1.2454224 2.897705q1.1162109 0.8029785 2.6304932 0.41027832q1.5270386 -0.38360596 2.9138794 -2.3116455q1.4233398 -1.9787598 1.3121338 -3.4830933q-0.089416504 -1.5079346 -1.2056274 -2.310913q-1.1288452 -0.8121338 -2.6558838 -0.42852783q-1.5142822 0.3927002 -2.8463745 2.244629zm7.0755615 8.285339l1.8912354 0.9562988q-0.59039307 1.1151123 -0.33587646 2.1259155q0.2672119 1.0198975 1.4341431 1.859375q1.1796265 0.8486328 2.097107 0.7772217q0.91748047 -0.07141113 1.3828125 -0.71832275q0.41967773 -0.58343506 0.14953613 -1.2782593q-0.17822266 -0.4746704 -1.3306274 -1.8426514q-1.5396118 -1.8197632 -2.0289307 -2.6915283q-0.4675293 -0.87524414 -0.4100952 -1.7578125q0.07922363 -0.88616943 0.6084595 -1.6218872q0.4835205 -0.6722412 1.1985474 -1.0240479q0.7368164 -0.35534668 1.5432129 -0.35266113q0.6030884 -0.008850098 1.434021 0.2808838q0.85272217 0.28625488 1.6390991 0.85198975q1.1922607 0.85772705 1.8464966 1.8480225q0.6541748 0.99035645 0.6439209 1.8876343q0.0115356445 0.8937378 -0.52612305 1.9890137l-1.838501 -0.97613525q0.4515381 -0.8685303 0.21636963 -1.6921387q-0.22607422 -0.83636475 -1.2280884 -1.55719q-1.1796265 -0.8485718 -1.9697876 -0.82037354q-0.79022217 0.028259277 -1.1643066 0.5482788q-0.23724365 0.32977295 -0.2131958 0.75128174q0.0021972656 0.42504883 0.33111572 0.93115234q0.18066406 0.28393555 1.1900024 1.5297852q1.467102 1.7868042 1.9492798 2.6149292q0.5040283 0.8245239 0.4810791 1.7126465q-0.001159668 0.88464355 -0.63067627 1.7598267q-0.6113281 0.8498535 -1.6661377 1.2459717q-1.0421143 0.40515137 -2.2817993 0.14849854q-1.2305908 -0.2692871 -2.4228516 -1.1270142q-1.9660034 -1.4143066 -2.4221802 -2.9743652q-0.43432617 -1.5635986 0.43273926 -3.3843384zm17.514404 11.560364l1.5318604 1.4291992q-1.538147 1.5497437 -3.3913574 1.7178955q-1.8314209 0.16455078 -3.493042 -1.0307617q-2.0674438 -1.4873047 -2.359558 -3.757019q-0.27941895 -2.260559 1.5362549 -4.784729q1.177002 -1.6362915 2.6074219 -2.4743042q1.4304199 -0.83807373 2.9718628 -0.6530762q1.5505981 0.17236328 2.8570557 1.1121826q1.6488647 1.1862183 2.086792 2.7716064q0.45056152 1.5945435 -0.3526001 3.326538l-1.8532104 -0.9290161q0.4981079 -1.2008057 0.25421143 -2.1461182q-0.2220459 -0.9489136 -1.0845337 -1.569397q-1.2937622 -0.9307251 -2.7807007 -0.5760498q-1.4651489 0.35107422 -2.9067383 2.3552246q-1.4598389 2.02948 -1.3521729 3.512024q0.12030029 1.4916992 1.3760376 2.3950195q1.0020142 0.72088623 2.121338 0.5829468q1.132019 -0.12878418 2.231079 -1.2821655zm0.46875 5.9576416l7.2718506 -10.109436l1.534729 1.104065l-1.1040039 1.5348511q1.3716431 -0.649353 2.112671 -0.6359253q0.75372314 0.022460938 1.3498535 0.45135498q0.8624878 0.6204834 1.3616333 1.826416l-1.7366943 1.1566772q-0.35687256 -0.8149414 -0.99108887 -1.2711792q-0.55810547 -0.40148926 -1.2610474 -0.3875122q-0.68115234 0.010437012 -1.3002319 0.46972656q-0.9359741 0.7125244 -1.7206421 1.8034058l-3.8047485 5.2893677l-1.7122803 -1.2318115zm15.126221 -7.288513l1.4233398 -1.9787598l1.7123413 1.2318115l-1.4233398 1.9787598l-1.7123413 -1.2318115zm-8.613098 11.97406l7.2718506 -10.109436l1.7123413 1.2318115l-7.2718506 10.109436l-1.7123413 -1.2318115zm5.901184 4.2452393l-1.5854492 -1.140564l10.036377 -13.95282l1.7123413 1.2318115l-3.5857544 4.9849854q2.0635376 -0.5942993 3.7504883 0.6192627q0.9259033 0.66607666 1.4893188 1.6488647q0.5634155 0.9827881 0.6034546 2.0509644q0.0491333 1.055481 -0.33984375 2.2385254q-0.3798828 1.1702881 -1.173706 2.2738037q-1.8612671 2.5876465 -4.1642456 3.08667q-2.3029785 0.49908447 -4.104065 -0.79663086q-1.7884521 -1.28656 -1.7265015 -3.5133057l-0.91241455 1.2684326zm3.6607666 -5.142761q-1.3047485 1.8139038 -1.394043 2.9815674q-0.13708496 1.9031372 1.2454224 2.897705q1.1162109 0.8029785 2.6304932 0.41027832q1.5270386 -0.38360596 2.9138794 -2.3115845q1.4233398 -1.9787598 1.3121338 -3.4831543q-0.089416504 -1.5079346 -1.2056274 -2.310913q-1.1288452 -0.81207275 -2.6558838 -0.42852783q-1.5142822 0.39276123 -2.8463745 2.244629zm14.859192 13.519165l1.598877 1.4966431q-1.5317383 1.2463379 -3.2810059 1.296814q-1.7401733 0.037719727 -3.5032349 -1.2305908q-2.2196655 -1.5968018 -2.5498657 -3.8938599q-0.3083496 -2.3006592 1.4708252 -4.774109q1.8339233 -2.5495605 4.153137 -3.0177002q2.3319092 -0.45898438 4.4247437 1.0466309q2.029419 1.4598999 2.315979 3.7640991q0.29919434 2.3133545 -1.49823 4.812134q-0.10949707 0.15222168 -0.3411255 0.44750977l-7.5342407 -5.420044q-1.1064453 1.7255249 -0.8953247 3.2247925q0.21118164 1.4992676 1.4795532 2.4116821q0.93859863 0.67523193 1.9539795 0.6550293q1.0280762 -0.011047363 2.2059326 -0.81903076zm-3.6425781 -6.8165894l5.644348 4.060486q0.7982178 -1.3505249 0.73083496 -2.3806763q-0.100097656 -1.5733643 -1.4065552 -2.5131836q-1.1795654 -0.8486328 -2.566162 -0.6334839q-1.3647461 0.21154785 -2.4024658 1.4668579zm11.03894 17.084229l6.313843 -8.777588l-1.5220947 -1.0949707l0.9580078 -1.3318481l1.5220947 1.0949707l0.76641846 -1.0654907q0.7390747 -1.0274658 1.2724609 -1.3944092q0.7154541 -0.48620605 1.6289062 -0.44500732q0.93530273 0.03765869 2.0514526 0.8406372q0.72302246 0.5201416 1.4795532 1.3146362l-1.3302612 1.31427q-0.45977783 -0.4847412 -0.94177246 -0.83148193q-0.77368164 -0.5565796 -1.3497925 -0.45135498q-0.5543213 0.10168457 -1.2112427 1.0149536l-0.66607666 0.92596436l1.9660034 1.4143066l-0.9580078 1.3318481l-1.9660034 -1.4143066l-6.313843 8.777588l-1.699646 -1.2227173zm7.991455 -1.9118042q2.0255127 -2.815918 4.5527954 -3.038086q2.1184692 -0.18908691 3.9956665 1.161377q2.0801392 1.49646 2.4138794 3.8153076q0.33374023 2.3189087 -1.390686 4.7162476q-1.4050903 1.9533691 -2.791504 2.6498413q-1.3863525 0.6965332 -2.949585 0.5150757q-1.5632935 -0.18145752 -2.8823853 -1.1304321q-2.1309204 -1.532898 -2.4610596 -3.830017q-0.32104492 -2.3097534 1.5128784 -4.859314zm1.7630615 1.2683716q-1.3959961 1.9406738 -1.2522583 3.506958q0.15637207 1.5753174 1.4501343 2.5060425q1.2683716 0.9124756 2.8116455 0.55981445q1.5523682 -0.3652954 2.9848022 -2.3567505q1.3504028 -1.8773193 1.1812744 -3.461792q-0.15637207 -1.5753784 -1.4120483 -2.4786987q-1.2937622 -0.9307251 -2.8370361 -0.57806396q-1.5305786 0.36175537 -2.9265137 2.3024902zm6.062256 12.021912l7.2718506 -10.109436l1.53479 1.104065l-1.1040039 1.5348511q1.3716431 -0.649353 2.112671 -0.6359253q0.75372314 0.022521973 1.3498535 0.45135498q0.8624878 0.6204834 1.3615723 1.826416l-1.7366333 1.1567383q-0.35687256 -0.81500244 -0.99108887 -1.2712402q-0.55810547 -0.40148926 -1.2610474 -0.38745117q-0.68115234 0.010375977 -1.300293 0.46972656q-0.9359741 0.7125244 -1.720581 1.8033447l-3.8047485 5.2893677l-1.7123413 -1.2318115zm17.554504 12.628601l10.036438 -13.95282l4.7944946 3.4491577q1.6362305 1.177063 2.3400269 1.991394q1.0042725 1.145874 1.3213501 2.4711304q0.43743896 1.7197876 -0.066467285 3.5708618q-0.48199463 1.8474731 -1.8232422 3.7120972q-1.1405029 1.5855713 -2.406067 2.5421753q-1.2528687 0.9657593 -2.420227 1.3578491q-1.1456299 0.38848877 -2.171692 0.34326172q-1.0133667 -0.036071777 -2.163391 -0.49768066q-1.1500244 -0.4616089 -2.418396 -1.3740845l-5.022827 -3.6133423zm3.0252686 -0.32592773l2.980713 2.1443481q1.3825684 0.9945679 2.338745 1.2974854q0.9688721 0.31207275 1.7757568 0.18035889q1.1340332 -0.18511963 2.2956543 -1.0240479q1.1707153 -0.85162354 2.302124 -2.4244995q1.5784302 -2.194336 1.6948853 -3.8814087q0.12554932 -1.6997681 -0.61901855 -2.8320923q-0.5258179 -0.8209839 -2.1746826 -2.0072021l-2.9299927 -2.107788l-7.6641846 10.654846z" fill-rule="nonzero"></path><path fill="#000000" fill-opacity="0.0" d="m685.8019 314.26804l176.18896 -109.16536l24.97638 40.283463l-176.18896 109.165344z" fill-rule="evenodd"></path><path fill="#000000" d="m712.0094 335.7216l-9.056946 -14.607574l9.855408 -6.1063232l1.0703125 1.7263489l-7.9161377 4.9048157l2.8076782 4.528351l6.8535767 -4.2464294l1.0621338 1.7130737l-6.8535767 4.2464294l4.1167603 6.639801l-1.939209 1.2015076zm8.188843 -12.389404q-1.8278198 -2.9480896 -1.0668945 -5.367981q0.6352539 -2.0295105 2.6010132 -3.2474976q2.1782837 -1.3496399 4.4488525 -0.77130127q2.2705688 0.5783386 3.8267212 3.0881958q1.2680054 2.045044 1.3815918 3.5922241q0.11352539 1.5471497 -0.65185547 2.922058q-0.76538086 1.3749084 -2.1467285 2.230774q-2.2313843 1.3825684 -4.4804077 0.80929565q-2.2573242 -0.58657837 -3.9122925 -3.2557678zm1.8462524 -1.1439209q1.2597046 2.0317993 2.762085 2.4978943q1.515686 0.45788574 2.8704834 -0.38153076q1.328186 -0.8229675 1.5923462 -2.383606q0.2559204 -1.573883 -1.0367432 -3.6588135q-1.2185669 -1.9653625 -2.7474976 -2.4150085q-1.515686 -0.45788574 -2.8306274 0.35684204q-1.3547974 0.8394165 -1.6188965 2.400055q-0.25091553 1.5523987 1.0088501 3.5841675zm13.427856 -1.0041199l-6.562195 -10.583862l1.6071777 -0.9957886l0.9962158 1.606842q-0.07556152 -1.5155334 0.22015381 -2.1950378q0.30895996 -0.68774414 0.93322754 -1.0745239q0.90319824 -0.55960083 2.208496 -0.55960083l0.40490723 2.0467224q-0.8895874 0.018157959 -1.5537109 0.42962646q-0.5844116 0.36209106 -0.84020996 1.0169067q-0.2508545 0.6333008 -0.06311035 1.3808899q0.30065918 1.1371765 1.008728 2.2792358l3.4334106 5.5375977l-1.7930908 1.1109924zm8.7595825 -5.427368l-9.789734 -8.584106l1.8461914 -1.1438904l5.474304 5.0634766l2.0322266 1.8840332q-0.06719971 -0.19732666 -0.80578613 -2.5152588l-2.1582031 -7.2467346l1.8461914 -1.1439209l5.3845215 5.155884l1.7910156 1.7026062l-0.6569824 -2.4236145l-1.9893188 -7.24115l1.7399292 -1.078064l3.2549438 12.633026l-1.8594971 1.1521301l-5.614258 -5.289215l-1.5182495 -1.5591736l2.8954468 9.473602l-1.8727417 1.1603699zm18.880554 -13.499603q-0.477417 1.4538269 -1.1848755 2.3884583q-0.7023926 0.91308594 -1.751709 1.5632324q-1.7399292 1.078064 -3.2099 0.8124695q-1.4567261 -0.27383423 -2.2800903 -1.6018066q-0.4857788 -0.7835083 -0.53564453 -1.6348877q-0.036621094 -0.85961914 0.29577637 -1.5986023q0.32409668 -0.7522583 0.9178467 -1.3958435q0.4489746 -0.4619751 1.4291992 -1.2531433q2.0136108 -1.6152344 2.8140259 -2.6074524q-0.20904541 -0.36679077 -0.27490234 -0.47302246q-0.6751709 -1.0889282 -1.4730835 -1.2194824q-1.0561523 -0.19116211 -2.4109497 0.6482544q-1.2750854 0.79003906 -1.5928345 1.6118774q-0.32598877 0.80856323 0.08166504 2.1183777l-1.9014282 0.8472595q-0.46081543 -1.2769165 -0.34436035 -2.30484q0.11639404 -1.0279541 0.921875 -2.041687q0.7972412 -1.027008 2.1652832 -1.8746643q1.3547974 -0.8394165 2.4024658 -1.0473938q1.0476685 -0.2079773 1.7507324 0.036499023q0.69488525 0.23117065 1.3153687 0.8760681q0.35961914 0.40213013 1.100647 1.5973206l1.4820557 2.3903198q1.5479126 2.496582 2.0791016 3.0864868q0.53125 0.5899048 1.2420654 0.99505615l-1.8728027 1.1603394q-0.62475586 -0.3849182 -1.1655273 -1.0791931zm-2.6326294 -3.9199219q-0.7359009 1.0073547 -2.515442 2.4959717q-1.0036011 0.8424072 -1.3449707 1.3296509q-0.328125 0.4789734 -0.3416748 1.0204468q-3.0517578E-4 0.53326416 0.2878418 0.9980469q0.4446411 0.71710205 1.2723389 0.8659668q0.8409424 0.14065552 1.8902588 -0.50946045q1.0360107 -0.64190674 1.5662842 -1.5954285q0.53027344 -0.9534912 0.41638184 -1.9674072q-0.08654785 -0.79193115 -0.81933594 -1.9738159l-0.41168213 -0.66397095zm7.8657837 2.4788208l-6.562134 -10.583862l1.6071167 -0.99575806l0.99627686 1.6068115q-0.07556152 -1.5155334 0.22009277 -2.1950378q0.309021 -0.68774414 0.93322754 -1.0745239q0.90319824 -0.55960083 2.2085571 -0.55960083l0.40490723 2.046753q-0.8895874 0.018127441 -1.5537109 0.42959595q-0.5844116 0.36212158 -0.840271 1.0169067q-0.25079346 0.6333313 -0.06304932 1.3808899q0.30059814 1.137207 1.008728 2.2792358l3.4333496 5.537628l-1.7930908 1.1109619zm13.674011 -8.47229l-0.831604 -1.3412476q-0.029663086 2.2057495 -1.9821167 3.4154663q-1.2617798 0.7817993 -2.7525024 0.7496338q-1.4989624 -0.04547119 -2.8573608 -0.9316406q-1.3450928 -0.8944092 -2.357788 -2.527832q-0.97979736 -1.5802612 -1.260498 -3.189331q-0.26733398 -1.6173096 0.3538208 -2.9579773q0.6343994 -1.3489075 1.9360352 -2.1553955q0.95635986 -0.5925293 1.9553833 -0.64172363q1.0040894 -0.07067871 1.8724365 0.2919922l-3.2523193 -5.2454834l1.7798462 -1.1027527l9.056946 14.607605l-1.6602783 1.0286865zm-8.948425 -1.7712708q1.2597046 2.0317688 2.7355347 2.5143433q1.4890747 0.47433472 2.657898 -0.24987793q1.1821289 -0.7324219 1.3995361 -2.1905518q0.22241211 -1.4796448 -0.9961548 -3.4450378q-1.3502808 -2.1778564 -2.8128052 -2.6686401q-1.4707642 -0.50408936 -2.692749 0.25305176q-1.1953735 0.7406311 -1.3963013 2.2253418q-0.19592285 1.4631653 1.1050415 3.5613708zm19.335083 -4.664215l-9.056946 -14.607605l5.02063 -3.1107483q1.7133789 -1.061615 2.7350464 -1.4005127q1.4429321 -0.48965454 2.7888794 -0.2758484q1.7565918 0.2534485 3.2745972 1.4267273q1.5230103 1.1517639 2.7333984 3.1038818q1.0291748 1.6599426 1.4293823 3.1949768q0.41345215 1.5267639 0.32940674 2.7552185q-0.07897949 1.2069397 -0.5130615 2.1376343q-0.4208374 0.92248535 -1.2871094 1.8084717q-0.866272 0.8859863 -2.194519 1.7089233l-5.2597046 3.2588806zm0.8555298 -2.9196167l3.1212769 -1.9339294q1.4477539 -0.8970337 2.0933228 -1.6646118q0.6588135 -0.7758484 0.8456421 -1.5716858q0.2625122 -1.1184692 -0.06866455 -2.5124512q-0.33935547 -1.4072571 -1.3602905 -3.0539246q-1.4244385 -2.2973938 -2.9390259 -3.0500488q-1.5227661 -0.76589966 -2.8538818 -0.5109863q-0.9597168 0.171875 -2.6864014 1.2417297l-3.0681763 1.901001l6.9161987 11.154907z" fill-rule="nonzero"></path><path fill="#000000" fill-opacity="0.0" d="m697.23145 427.98145l194.61414 71.33859l-16.283447 44.53543l-194.6142 -71.33859z" fill-rule="evenodd"></path><path fill="#000000" d="m696.52765 461.84824l5.9021606 -16.142334l10.885437 3.9902039l-0.69750977 1.9077454l-8.743591 -3.2050781l-1.8296509 5.00412l7.5699463 2.7748718l-0.6921997 1.8930359l-7.5698853 -2.7748718l-2.6828003 7.337433l-2.1419067 -0.78512573zm14.799744 -1.1983337q1.1911621 -3.2578125 3.564392 -4.1519165q1.9885864 -0.75216675 4.15979 0.04373169q2.4059448 0.881958 3.352234 3.0260925q0.946228 2.144165 -0.067871094 4.9177246q-0.82629395 2.2599182 -1.9733276 3.303955q-1.1469727 1.0440063 -2.7009277 1.2898254q-1.553894 0.24584961 -3.0795898 -0.31341553q-2.4646606 -0.9034729 -3.4016113 -3.0275574q-0.9315796 -2.138794 0.14691162 -5.08844zm2.0391846 0.74749756q-0.82092285 2.2452393 -0.260437 3.715454q0.5751343 1.4756165 2.0715332 2.024109q1.467041 0.53778076 2.857727 -0.2171936q1.3960571 -0.76968384 2.2384644 -3.073639q0.7940674 -2.171875 0.20428467 -3.652832q-0.5751343 -1.4755859 -2.0275269 -2.0079956q-1.4963379 -0.54852295 -2.887085 0.20648193q-1.3760376 0.76034546 -2.1969604 3.0056152zm9.076416 9.95047l4.276367 -11.695862l1.7750854 0.6506958l-0.64923096 1.7756348q1.1455688 -0.9945984 1.8626099 -1.1810913q0.73168945 -0.18112183 1.4212036 0.071624756q0.9975586 0.36569214 1.8031006 1.3931885l-1.3602295 1.581604q-0.5632324 -0.6890564 -1.2967529 -0.9579468q-0.6455078 -0.23660278 -1.3184814 -0.033996582q-0.65301514 0.19332886 -1.1252441 0.8023987q-0.7090454 0.93826294 -1.1704712 2.2003174l-2.2374878 6.1194153l-1.9804688 -0.72598267zm9.67511 3.5465393l0.7114868 -13.0026245l2.0391846 0.74749756l-0.6050415 7.4334106l-0.22796631 2.762146q0.113708496 -0.1746521 1.4813843 -2.1861877l4.3688965 -6.1701965l2.0391846 0.74746704l-0.73309326 7.419739l-0.23413086 2.4603577l1.5011597 -2.0125427l4.468689 -6.0337524l1.921814 0.7044678l-7.9292603 10.356812l-2.053894 -0.75286865l0.696228 -7.6828613l0.28961182 -2.1571045l-5.6657104 8.124512l-2.0685425 -0.75827026zm22.271118 6.532898q-1.4383545 0.5212097 -2.6101685 0.5409851q-1.1517334 0.010498047 -2.31073 -0.41433716q-1.921814 -0.7044678 -2.619995 -2.0254822q-0.6835327 -1.3156433 -0.14697266 -2.7831116q0.31652832 -0.8658142 0.9555054 -1.4303894q0.6536865 -0.5592041 1.4401245 -0.75354004q0.7918091 -0.2090149 1.6644897 -0.13873291q0.6404419 0.068359375 1.8677368 0.35183716q2.5132446 0.5884094 3.7877808 0.6062927q0.1595459 -0.39086914 0.20245361 -0.50823975q0.4399414 -1.2033386 0.050231934 -1.9120178q-0.5013428 -0.9493103 -1.9977417 -1.4978333q-1.4083862 -0.51626587 -2.2509766 -0.25930786q-0.83721924 0.24227905 -1.6160278 1.3713379l-1.8399048 -0.973999q0.7200928 -1.1505737 1.6005859 -1.6931763q0.88049316 -0.54260254 2.1750488 -0.5340576q1.2999268 -0.0061035156 2.8109741 0.5477905q1.4963379 0.54852295 2.3065186 1.2449036q0.8101196 0.6963501 1.0516968 1.4006653q0.24694824 0.6896057 0.12249756 1.5759277q-0.09436035 0.5312195 -0.5772705 1.8519592l-0.9658203 2.6414795q-1.008728 2.7588806 -1.1449585 3.5410156q-0.13623047 0.782135 -0.016296387 1.5916138l-2.0685425 -0.75823975q-0.08270264 -0.72927856 0.12976074 -1.5833435zm1.4589844 -4.490967q-1.246582 0.042297363 -3.515808 -0.44003296q-1.2820435 -0.27023315 -1.8759766 -0.23834229q-0.57928467 0.03729248 -1.0136108 0.36068726q-0.41967773 0.32876587 -0.6074829 0.8423767q-0.2897339 0.79244995 0.10394287 1.5358582q0.4083252 0.7487793 1.5672607 1.1736145q1.1443481 0.4194641 2.2216187 0.24853516q1.0773315 -0.17089844 1.8046875 -0.8861389q0.5695801 -0.5567322 1.0471191 -1.862793l0.2682495 -0.73376465zm2.9041138 7.721222l4.276306 -11.695862l1.7751465 0.6506958l-0.64923096 1.7756348q1.1455688 -0.9945984 1.8626099 -1.1810913q0.73168945 -0.18112183 1.4212036 0.071624756q0.9975586 0.36569214 1.8031006 1.3931885l-1.3602295 1.581604q-0.5632324 -0.6890564 -1.2967529 -0.9579468q-0.6455078 -0.23660278 -1.3185425 -0.033996582q-0.6529541 0.19332886 -1.1251831 0.8023987q-0.7090454 0.93826294 -1.1705322 2.2003174l-2.2374268 6.1194153l-1.9804688 -0.72598267zm15.103149 5.5362854l0.54193115 -1.4821472q-1.753418 1.3375854 -3.9099731 0.5470886q-1.3937378 -0.5108948 -2.28833 -1.7041931q-0.8892822 -1.2079773 -1.0303955 -2.8240356q-0.12646484 -1.6106873 0.5335083 -3.41568q0.63848877 -1.7463074 1.7310791 -2.9600525q1.1072998 -1.2083435 2.545288 -1.5466003q1.4526367 -0.33288574 2.8903198 0.19412231q1.0562744 0.38720703 1.7114868 1.1432495q0.67523193 0.74679565 0.92578125 1.6540833l2.1193848 -5.79657l1.9658813 0.72058105l-5.9021606 16.142365l-1.8338013 -0.6722107zm-4.128723 -8.136841q-0.8209839 2.2452393 -0.28985596 3.704712q0.5458374 1.4648132 1.836792 1.9380493q1.3056641 0.47860718 2.586914 -0.24993896q1.3012695 -0.737854 2.095337 -2.909729q0.87994385 -2.4066772 0.3635254 -3.8607483q-0.5111084 -1.46875 -1.8607788 -1.963501q-1.3203735 -0.48397827 -2.6123047 0.27392578q-1.2719116 0.7485962 -2.119629 3.0672302zm15.601013 12.342163l5.9020996 -16.142334l5.545471 2.0327454q1.892456 0.6937256 2.7895508 1.2888184q1.2756348 0.8337097 1.9380493 2.025116q0.88464355 1.5391235 0.8984375 3.4579773q0.033813477 1.9095459 -0.75494385 4.066742q-0.6706543 1.8343506 -1.6312256 3.0964966q-0.94592285 1.2675171 -1.9641724 1.9593201q-0.99816895 0.68252563 -1.99823 0.91503906q-0.98535156 0.23791504 -2.216919 0.10266113q-1.2315674 -0.1352539 -2.6986084 -0.67303467l-5.8095093 -2.129547zm2.824768 -1.1279602l3.4475098 1.2637329q1.5991211 0.58618164 2.6013184 0.620697q1.0168457 0.039916992 1.7581787 -0.30407715q1.0418701 -0.48342896 1.9341431 -1.6042175q0.897583 -1.135437 1.5629272 -2.9551086q0.92822266 -2.5387573 0.58569336 -4.1953735q-0.33721924 -1.6712646 -1.3591919 -2.561798q-0.727478 -0.64941406 -2.6346436 -1.3485107l-3.388916 -1.2422485l-4.507019 12.326904z" fill-rule="nonzero"></path></g></svg>

